vhdl work "ipcore_dir/dist_fifo_fwft_32x16.vhd"
vhdl work "ipcore_dir/dist_fifo_fwft_256x16.vhd"
vhdl work "ipcore_dir/blk_asy_fifo_fwft_512x32.vhd"
vhdl work "ipcore_dir/blk_asy_fifo_fwft_512x256.vhd"
vhdl work "ipcore_dir/dual_ram2kx18.vhd"
vhdl work "ipcore_dir/blk_sy_fwft_fifo_512x256.vhd"
vhdl work "macros/custom_cores/shared_components.vhd"
vhdl work "macros/custom_cores/bcm_package.vhd"
vhdl work "risingedge2pulse_generator.vhd"
vhdl work "macros/custom_cores/pulse_detection.vhd"
vhdl work "macros/custom_cores/moving_average_filter.vhd"
vhdl work "macros/custom_cores/droop_compensation.vhd"
vhdl work "macros/custom_cores/diff_itl_detection.vhd"
vhdl work "macros/custom_cores/bg_average.vhd"
vhdl work "ipcore_dir/v6_gtx_quad_backplane_p2p_114_gtx.vhd"
vhdl work "ipcore_dir/v6_gtx_dual_sfp_112_gtx.vhd"
vhdl work "macros/custom_cores/pulse_detection_wrapper.vhd"
vhdl work "macros/custom_cores/moving_average_filter_wrapper.vhd"
vhdl work "macros/custom_cores/droop_compensation_wrapper.vhd"
vhdl work "macros/custom_cores/diff_itl_detection_wrapper.vhd"
vhdl work "macros/custom_cores/bg_average_wrapper.vhd"
vhdl work "ipcore_dir/v6_gtx_quad_backplane_p2p_114/example_design/mgt_usrclk_source_mmcm.vhd"
vhdl work "ipcore_dir/v6_gtx_quad_backplane_p2p_114.vhd"
vhdl work "ipcore_dir/v6_gtx_dual_sfp_112.vhd"
vhdl work "i2c_master_interface.vhd"
vhdl work "channel_sample_block_v1.vhd"
vhdl work "adc_ringbuffer_delay_block.vhd"
vhdl work "quad_gtx_serdes_interface.vhd"
vhdl work "pcie_to_ddr3_write_clockdomain_bridge.vhd"
vhdl work "pcie_interface.vhd"
vhdl work "macros/custom_cores/custom_signal_processing.vhd"
vhdl work "macros/custom_cores/custom_register_array.vhd"
vhdl work "dual_gtx_serdes_interface.vhd"
vhdl work "ddr3_interface.vhd"
vhdl work "dac_fd_out_logic.vhd"
vhdl work "dac_clk_out_mmcm.vhd"
vhdl work "adc_sampling_block_v1.vhd"
vhdl work "adc_ringbuffer_delay_blocks.vhd"
vhdl work "adc_clock_buffer.vhd"
vhdl work "sis8300l_top.vhd"
vhdl work "ipcore_dir/test_pcie/source/gtx_tx_sync_rate_v6.vhd"
vhdl work "ipcore_dir/test_pcie/source/gtx_wrapper_v6.vhd"
vhdl work "ipcore_dir/test_pcie/source/gtx_rx_valid_filter_v6.vhd"
vhdl work "ipcore_dir/test_pcie/source/pcie_upconfig_fix_3451_v6.vhd"
vhdl work "ipcore_dir/test_pcie/source/pcie_2_0_v6.vhd"
vhdl work "ipcore_dir/test_pcie/source/pcie_bram_top_v6.vhd"
vhdl work "ipcore_dir/test_pcie/source/pcie_bram_v6.vhd"
vhdl work "ipcore_dir/test_pcie/source/pcie_brams_v6.vhd"
vhdl work "ipcore_dir/test_pcie/source/pcie_clocking_v6.vhd"
vhdl work "ipcore_dir/test_pcie/source/pcie_gtx_v6.vhd"
vhdl work "ipcore_dir/test_pcie/source/pcie_pipe_lane_v6.vhd"
vhdl work "ipcore_dir/test_pcie/source/pcie_pipe_misc_v6.vhd"
vhdl work "ipcore_dir/test_pcie/source/pcie_pipe_v6.vhd"
vhdl work "ipcore_dir/test_pcie/source/pcie_reset_delay_v6.vhd"
