#Release 14.6 - par P.68d (nt64)
#Copyright (c) 1995-2013 Xilinx, Inc.  All rights reserved.

#Thu Apr 03 15:25:48 2014

#
## NOTE: This file is designed to be imported into a spreadsheet program
# such as Microsoft Excel for viewing, printing and sorting. The |
# character is used as the data field separator. This file is also designed
# to support parsing.
#
#INPUT FILE:       sis8300l_top_map.ncd
#OUTPUT FILE:      sis8300l_top_pad.csv
#PART TYPE:        xc6vlx130t
#SPEED GRADE:      -2
#PACKAGE:          ff1156
#
# Pinout by Pin Number:
# 
# -----,-----,-----,-----,-----,-----,-----,-----,-----,-----,-----,-----,-----,-----,-----,
Pin Number,Signal Name,Pin Usage,Pin Name,Direction,IO Standard,IO Bank Number,Drive (mA),Slew Rate,Termination,IOB Delay,Voltage,Constraint,IO Register,Signal Integrity,
A1,,,GND,,,,,,,,,,,,
A2,,,GND,,,,,,,,,,,,
A3,,OPAD,MGTTXP3_116,UNUSED,,,,,,,,,,,
A4,,OPAD,MGTTXN3_116,UNUSED,,,,,,,,,,,
A5,,,GND,,,,,,,,,,,,
A6,,,GND,,,,,,,,,,,,
A7,,,GND,,,,,,,,,,,,
A8,RTM_D_N<8>,IOBS,IO_L5N_A08_D24_34,TRISTATE,LVDS_25,34,,,,,,LOCATED,NO,NONE,
A9,RTM_D_P<8>,IOBM,IO_L5P_A09_D25_34,TRISTATE,LVDS_25,34,,,,,,LOCATED,NO,NONE,
A10,RTM_D_P<7>,IOBM,IO_L1P_GC_34,TRISTATE,LVDS_25,34,,,,,,LOCATED,NO,NONE,
A11,ADC5_D_P<3>,IOB,IO_L13P_SM6P_35,INPUT,LVDS_25,35,,,,NONE,,LOCATED,NO,DIFF_TERM,
A12,,,VCCO_35,,,35,,,,,2.50,,,,
A13,ADC5_D_P<11>,IOB,IO_L3P_SM1P_35,INPUT,LVDS_25,35,,,,NONE,,LOCATED,NO,DIFF_TERM,
A14,ADC5_D_N<11>,IOB,IO_L3N_SM1N_35,,LVDS_25,35,,,,,,LOCATED,NO,DIFF_TERM,
A15,ADC4_D_P<10>,IOB,IO_L15P_36,INPUT,LVDS_25,36,,,,NONE,,LOCATED,NO,DIFF_TERM,
A16,ADC4_D_P<16>,IOB,IO_L11P_SRCC_36,INPUT,LVDS_25,36,,,,NONE,,LOCATED,NO,DIFF_TERM,
A17,,,GND,,,,,,,,,,,,
A18,ADC3_D_P<0>,IOB,IO_L15P_26,INPUT,LVDS_25,26,,,,NONE,,LOCATED,NO,DIFF_TERM,
A19,ADC3_D_N<0>,IOB,IO_L15N_26,,LVDS_25,26,,,,,,LOCATED,NO,DIFF_TERM,
A20,ADC3_D_P<14>,IOB,IO_L7P_26,INPUT,LVDS_25,26,,,,NONE,,LOCATED,NO,DIFF_TERM,
A21,ADC3_D_N<14>,IOB,IO_L7N_26,,LVDS_25,26,,,,,,LOCATED,NO,DIFF_TERM,
A22,,,VCCO_26,,,26,,,,,any******,,,,
A23,ADC3_D_P<12>,IOB,IO_L1P_26,INPUT,LVDS_25,26,,,,NONE,,LOCATED,NO,DIFF_TERM,
A24,ADC3_D_N<12>,IOB,IO_L1N_26,,LVDS_25,26,,,,,,LOCATED,NO,DIFF_TERM,
A25,ADC2_D_N<2>,IOB,IO_L3N_25,,LVDS_25,25,,,,,,LOCATED,NO,DIFF_TERM,
A26,ADC2_D_N<0>,IOB,IO_L5N_25,,LVDS_25,25,,,,,,LOCATED,NO,DIFF_TERM,
A27,,,GND,,,,,,,,,,,,
A28,ADC2_D_P<13>,IOB,IO_L13P_25,INPUT,LVDS_25,25,,,,NONE,,LOCATED,NO,DIFF_TERM,
A29,ADC2_D_N<13>,IOB,IO_L13N_25,,LVDS_25,25,,,,,,LOCATED,NO,DIFF_TERM,
A30,ADC2_D_P<12>,IOB,IO_L15P_25,INPUT,LVDS_25,25,,,,NONE,,LOCATED,NO,DIFF_TERM,
A31,ADC2_D_N<14>,IOB,IO_L19N_GC_25,,LVDS_25,25,,,,,,LOCATED,NO,DIFF_TERM,
A32,,,VCCO_16,,,16,,,,,any******,,,,
A33,ADC1_D_P<4>,IOB,IO_L4P_16,INPUT,LVDS_25,16,,,,NONE,,LOCATED,NO,DIFF_TERM,
A34,,,GND,,,,,,,,,,,,
AA1,,,GND,,,,,,,,,,,,
AA2,,,GND,,,,,,,,,,,,
AA3,P2PR_P<3>,IPAD,MGTRXP0_114,,,,,,,,,LOCATED,NO,,
AA4,P2PR_N<3>,IPAD,MGTRXN0_114,,,,,,,,,LOCATED,NO,,
AA5,,,GND,,,,,,,,,,,,
AA6,,,MGTAVCC_S,,,,,,,,,,,,
AA7,,,GND,,,,,,,,,,,,
AA8,,,DOUT_BUSY_0,,,,,,,,,,,,
AA9,,,GND,,,,,,,,,,,,
AA10,,,VCCAUX,,,,,,,,2.5,,,,
AA11,,,GND,,,,,,,,,,,,
AA12,,,VCCINT,,,,,,,,1.0,,,,
AA13,,,GND,,,,,,,,,,,,
AA14,,,VCCINT,,,,,,,,1.0,,,,
AA15,,,GND,,,,,,,,,,,,
AA16,,,VCCINT,,,,,,,,1.0,,,,
AA17,,,GND,,,,,,,,,,,,
AA18,,,VCCINT,,,,,,,,1.0,,,,
AA19,,,GND,,,,,,,,,,,,
AA20,,,VCCINT,,,,,,,,1.0,,,,
AA21,,,GND,,,,,,,,,,,,
AA22,,,VCCAUX,,,,,,,,2.5,,,,
AA23,,IOBM,IO_L16P_RS0_24,UNUSED,,24,,,,,,,,,
AA24,FLASH_DIN,IOB,IO_L14N_VREF_FOE_B_MOSI_24,OUTPUT,LVCMOS25*,24,12,SLOW,,,,LOCATED,NO,NONE,
AA25,ADC_OEB_L,IOB,IO_L6P_13,OUTPUT,LVCMOS18,13,12,SLOW,,,,LOCATED,NO,NONE,
AA26,ADC_SPI_CS_L<5>,IOB,IO_L17P_13,OUTPUT,LVCMOS18,13,12,SLOW,,,,LOCATED,NO,NONE,
AA27,,,GND,,,,,,,,,,,,
AA28,ADC_PDWN,IOB,IO_L7P_13,OUTPUT,LVCMOS18,13,12,SLOW,,,,LOCATED,NO,NONE,
AA29,ADC_SYNC,IOB,IO_L7N_13,OUTPUT,LVCMOS18,13,12,SLOW,,,,LOCATED,NO,NONE,
AA30,ADC_SPI_CS_L<3>,IOB,IO_L1P_13,OUTPUT,LVCMOS18,13,12,SLOW,,,,LOCATED,NO,NONE,
AA31,ADC_SPI_CS_L<4>,IOB,IO_L1N_13,OUTPUT,LVCMOS18,13,12,SLOW,,,,LOCATED,NO,NONE,
AA32,,,VCCO_13,,,13,,,,,1.80,,,,
AA33,ADC_SPI_CS_L<2>,IOB,IO_L0N_13,OUTPUT,LVCMOS18,13,12,SLOW,,,,LOCATED,NO,NONE,
AA34,ADC_SPI_CS_L<1>,IOB,IO_L0P_13,OUTPUT,LVCMOS18,13,12,SLOW,,,,LOCATED,NO,NONE,
AB1,,OPAD,MGTTXP3_113,UNUSED,,,,,,,,,,,
AB2,,OPAD,MGTTXN3_113,UNUSED,,,,,,,,,,,
AB3,,,GND,,,,,,,,,,,,
AB4,,,GND,,,,,,,,,,,,
AB5,,IPAD,MGTREFCLK1N_113,UNUSED,,,,,,,,,,,
AB6,,IPAD,MGTREFCLK1P_113,UNUSED,,,,,,,,,,,
AB7,,,GND,,,,,,,,,,,,
AB8,,,GND,,,,,,,,,,,,
AB9,,,VCCO_0,,,0,,,,,any******,,,,
AB10,P1720_DE_H<5>,IOB,IO_L10N_MRCC_34,OUTPUT,LVCMOS25*,34,12,SLOW,,,,LOCATED,NO,NONE,
AB11,,,VCCINT,,,,,,,,1.0,,,,
AB12,,,GND,,,,,,,,,,,,
AB13,,,VCCINT,,,,,,,,1.0,,,,
AB14,,,GND,,,,,,,,,,,,
AB15,,,VCCINT,,,,,,,,1.0,,,,
AB16,,,GND,,,,,,,,,,,,
AB17,,,VCCINT,,,,,,,,1.0,,,,
AB18,,,GND,,,,,,,,,,,,
AB19,,,VCCINT,,,,,,,,1.0,,,,
AB20,,,GND,,,,,,,,,,,,
AB21,,,VCCINT,,,,,,,,1.0,,,,
AB22,,,GND,,,,,,,,,,,,
AB23,,IOBS,IO_L16N_CSO_B_24,UNUSED,,24,,,,,,,,,
AB24,,,GND,,,,,,,,,,,,
AB25,ADC_SPI_SCLK,IOB,IO_L19P_13,OUTPUT,LVCMOS18,13,12,SLOW,,,,LOCATED,NO,NONE,
AB26,,IOBS,IO_L17N_13,UNUSED,,13,,,,,,,,,
AB27,,IOBM,IO_L15P_13,UNUSED,,13,,,,,,,,,
AB28,,IOBM,IO_L13P_13,UNUSED,,13,,,,,,,,,
AB29,,,VCCO_13,,,13,,,,,1.80,,,,
AB30,,IOBM,IO_L3P_13,UNUSED,,13,,,,,,,,,
AB31,,IOBS,IO_L3N_13,UNUSED,,13,,,,,,,,,
AB32,,IOBM,IO_L12P_VRN_13,UNUSED,,13,,,,,,,,,
AB33,,IOBS,IO_L4N_VREF_13,UNUSED,,13,,,,,,,,,
AB34,,,GND,,,,,,,,,,,,
AC1,,,GND,,,,,,,,,,,,
AC2,,,MGTAVTT_S,,,,,,,,,,,,
AC3,,IPAD,MGTRXP3_113,UNUSED,,,,,,,,,,,
AC4,,IPAD,MGTRXN3_113,UNUSED,,,,,,,,,,,
AC5,,,GND,,,,,,,,,,,,
AC6,,,MGTAVCC_S,,,,,,,,,,,,
AC7,,,GND,,,,,,,,,,,,
AC8,,,TDO_0,,,,,,,,,,,,
AC9,P1720_DE_H<4>,IOB,IO_L12N_A02_D18_34,OUTPUT,LVCMOS25*,34,12,SLOW,,,,LOCATED,NO,NONE,
AC10,MLVDS_RIN<2>,IOB,IO_L10P_MRCC_34,INPUT,LVCMOS25*,34,,,,NONE,,LOCATED,NO,NONE,
AC11,,,GND,,,,,,,,,,,,
AC12,,IOBS,IO_L9N_MRCC_33,UNUSED,,33,,,,,,,,,
AC13,,IOBM,IO_L9P_MRCC_33,UNUSED,,33,,,,,,,,,
AC14,,IOBS,IO_L2N_33,UNUSED,,33,,,,,,,,,
AC15,,IOBM,IO_L9P_MRCC_32,UNUSED,,32,,,,,,PROHIBITED,,,
AC16,,,VCCO_32,,,32,,,,,1.50,,,,
AC17,,IOBS,IO_L11N_SRCC_32,UNUSED,,32,,,,,,,,,
AC18,,IOBM,IO_L11P_SRCC_32,UNUSED,,32,,,,,,,,,
AC19,,IOBM,IO_L14P_22,UNUSED,,22,,,,,,,,,
AC20,,IOBM,IO_L6P_22,UNUSED,,22,,,,,,,,,
AC21,,,GND,,,,,,,,,,,,
AC22,,IOBM,IO_L19P_24,UNUSED,,24,,,,,,,,,
AC23,Z3_ILOCK1,IOB,IO_L18P_24,OUTPUT,LVCMOS25*,24,12,SLOW,,,,LOCATED,NO,NONE,
AC24,,IOBS,IO_L18N_24,UNUSED,,24,,,,,,,,,
AC25,,IOBS,IO_L19N_13,UNUSED,,13,,,,,,,,,
AC26,,,VCCO_13,,,13,,,,,1.80,,,,
AC27,,IOBS,IO_L15N_13,UNUSED,,13,,,,,,,,,
AC28,,IOBS,IO_L13N_13,UNUSED,,13,,,,,,,,,
AC29,,IOBS,IO_L11N_SRCC_13,UNUSED,,13,,,,,,,,,
AC30,,IOBS,IO_L9N_MRCC_13,UNUSED,,13,,,,,,,,,
AC31,,,GND,,,,,,,,,,,,
AC32,,IOBS,IO_L12N_VRP_13,UNUSED,,13,,,,,,,,,
AC33,,IOBM,IO_L4P_13,UNUSED,,13,,,,,,,,,
AC34,,IOBS,IO_L2N_13,UNUSED,,13,,,,,,,,,
AD1,,OPAD,MGTTXP2_113,UNUSED,,,,,,,,,,,
AD2,,OPAD,MGTTXN2_113,UNUSED,,,,,,,,,,,
AD3,,,MGTAVTT_S,,,,,,,,,,,,
AD4,,,GND,,,,,,,,,,,,
AD5,,IPAD,MGTREFCLK0N_113,UNUSED,,,,,,,,,,,
AD6,,IPAD,MGTREFCLK0P_113,UNUSED,,,,,,,,,,,
AD7,,,GND,,,,,,,,,,,,
AD8,,,TDI_0,,,,,,,,,,,,
AD9,MLVDS_RIN<0>,IOB,IO_L14P_A25_34,INPUT,LVCMOS25*,34,,,,NONE,,LOCATED,NO,NONE,
AD10,MLVDS_RIN<4>,IOB,IO_L12P_A03_D19_34,INPUT,LVCMOS25*,34,,,,NONE,,LOCATED,NO,NONE,
AD11,ddr3_ck_n<0>,IOBS,IO_L10N_MRCC_33,OUTPUT,DIFF_SSTL15,33,,,,,,LOCATED,NO,NONE,
AD12,ddr3_ck_p<0>,IOBM,IO_L10P_MRCC_33,OUTPUT,DIFF_SSTL15,33,,,,,,LOCATED,NO,NONE,
AD13,,,VCCO_33,,,33,,,,,1.50,,,,
AD14,,IOBM,IO_L2P_33,UNUSED,,33,,,,,,,,,
AD15,,IOBS,IO_L9N_MRCC_32,UNUSED,,32,,,,,,,,,
AD16,,IOBS,IO_L10N_MRCC_32,UNUSED,,32,,,,,,,,,
AD17,,IOBM,IO_L16P_32,UNUSED,,32,,,,,,,,,
AD18,,,GND,,,,,,,,,,,,
AD19,,IOBS,IO_L14N_VREF_22,VREF Required,,22,,,,,0.75,,,,
AD20,,IOBS,IO_L6N_22,UNUSED,,22,,,,,,,,,
AD21,,IOBS,IO_L0N_22,UNUSED,,22,,,,,,,,,
AD22,,IOBS,IO_L19N_24,UNUSED,,24,,,,,,,,,
AD23,,,VCCO_24,,,24,,,,,2.50,,,,
AD24,Z3_ILOCK0,IOB,IO_L11P_SRCC_24,OUTPUT,LVCMOS25*,24,12,SLOW,,,,LOCATED,NO,NONE,
AD25,,IOBM,IO_L0P_12,UNUSED,,12,,,,,,,,,
AD26,,IOBS,IO_L0N_12,UNUSED,,12,,,,,,,,,
AD27,,IOBS,IO_L1N_12,UNUSED,,12,,,,,,,,,
AD28,,,GND,,,,,,,,,,,,
AD29,,IOBM,IO_L11P_SRCC_13,UNUSED,,13,,,,,,,,,
AD30,,IOBM,IO_L9P_MRCC_13,UNUSED,,13,,,,,,,,,
AD31,,IOBS,IO_L5N_13,UNUSED,,13,,,,,,,,,
AD32,,IOBM,IO_L14P_13,UNUSED,,13,,,,,,,,,
AD33,,,VCCO_13,,,13,,,,,1.80,,,,
AD34,,IOBM,IO_L2P_13,UNUSED,,13,,,,,,,,,
AE1,,,GND,,,,,,,,,,,,
AE2,,,GND,,,,,,,,,,,,
AE3,,IPAD,MGTRXP2_113,UNUSED,,,,,,,,,,,
AE4,,IPAD,MGTRXN2_113,UNUSED,,,,,,,,,,,
AE5,,,GND,,,,,,,,,,,,
AE6,,,MGTAVCC_S,,,,,,,,,,,,
AE7,,,GND,,,,,,,,,,,,
AE8,,,TCK_0,,,,,,,,,,,,
AE9,MLVDS_RIN<1>,IOB,IO_L14N_VREF_A24_34,INPUT,LVCMOS25*,34,,,,NONE,,LOCATED,NO,NONE,
AE10,,,VCCO_34,,,34,,,,,2.50,,,,
AE11,,IOBS,IO_L4N_VREF_33,UNUSED,,33,,,,,,,,,
AE12,ddr3_reset_n,IOB,IO_L0N_33,OUTPUT,LVCMOS15,33,12,SLOW,,,,LOCATED,YES,NONE,
AE13,ddr3_ba<2>,IOB,IO_L0P_33,OUTPUT,SSTL15,33,,,,,,LOCATED,NO,NONE,
AE14,ddr3_cke<0>,IOB,IO_L14P_33,OUTPUT,SSTL15,33,,,,,,LOCATED,NO,NONE,
AE15,,,GND,,,,,,,,,,,,
AE16,,IOBM,IO_L10P_MRCC_32,UNUSED,,32,,,,,,PROHIBITED,,,
AE17,,IOBS,IO_L16N_32,UNUSED,,32,,,,,,,,,
AE18,,IOBM,IO_L18P_32,UNUSED,,32,,,,,,,,,
AE19,ddr3_dq<41>,IOB,IO_L8N_SRCC_22,BIDIR,SSTL15_T_DCI,22,,,,NONE,,LOCATED,YES,SPLIT,
AE20,,,VCCO_22,,,22,,,,,1.50,,,,
AE21,,IOBM,IO_L0P_22,UNUSED,,22,,,,,,,,,
AE22,,IOBS,IO_L17N_VRP_24,UNUSED,,24,,,,,,,,,
AE23,TEST2,IOB,IO_L17P_VRN_24,OUTPUT,LVCMOS25*,24,12,SLOW,,,,LOCATED,YES,NONE,
AE24,TEST1,IOB,IO_L11N_SRCC_24,OUTPUT,LVCMOS25*,24,12,SLOW,,,,LOCATED,YES,NONE,
AE25,,,GND,,,,,,,,,,,,
AE26,,IOBS,IO_L11N_SRCC_12,UNUSED,,12,,,,,,,,,
AE27,,IOBM,IO_L1P_12,UNUSED,,12,,,,,,,,,
AE28,,IOBM,IO_L3P_12,UNUSED,,12,,,,,,,,,
AE29,,IOBS,IO_L3N_12,UNUSED,,12,,,,,,,,,
AE30,,,VCCO_13,,,13,,,,,1.80,,,,
AE31,,IOBM,IO_L5P_13,UNUSED,,13,,,,,,,,,
AE32,,IOBS,IO_L14N_VREF_13,UNUSED,,13,,,,,,,,,
AE33,,IOBM,IO_L10P_MRCC_13,UNUSED,,13,,,,,,,,,
AE34,,IOBM,IO_L8P_SRCC_13,UNUSED,,13,,,,,,,,,
AF1,,OPAD,MGTTXP1_113,UNUSED,,,,,,,,,,,
AF2,,OPAD,MGTTXN1_113,UNUSED,,,,,,,,,,,
AF3,,,GND,,,,,,,,,,,,
AF4,,,GND,,,,,,,,,,,,
AF5,,IPAD,MGTRXP1_113,UNUSED,,,,,,,,,,,
AF6,,IPAD,MGTRXN1_113,UNUSED,,,,,,,,,,,
AF7,,,GND,,,,,,,,,,,,
AF8,,,TMS_0,,,,,,,,,,,,
AF9,MLVDS_RIN<3>,IOB,IO_L16P_A21_34,INPUT,LVCMOS25*,34,,,,NONE,,LOCATED,NO,NONE,
AF10,MLVDS_RIN<6>,IOB,IO_L16N_A20_34,INPUT,LVCMOS25*,34,,,,NONE,,LOCATED,NO,NONE,
AF11,ddr3_addr<14>,IOB,IO_L4P_33,OUTPUT,SSTL15,33,,,,,,LOCATED,NO,NONE,
AF12,,,GND,,,,,,,,,,,,
AF13,ddr3_addr<2>,IOB,IO_L12P_VRN_33,OUTPUT,SSTL15,33,,,,,,LOCATED,NO,NONE,
AF14,,IOBS,IO_L14N_VREF_33,UNUSED,,33,,,,,,,,,
AF15,ddr3_dq<59>,IOB,IO_L0N_32,BIDIR,SSTL15_T_DCI,32,,,,NONE,,LOCATED,YES,SPLIT,
AF16,,IOBS,IO_L4N_VREF_32,VREF Required,,32,,,,,0.75,,,,
AF17,,,VCCO_32,,,32,,,,,1.50,,,,
AF18,,IOBS,IO_L18N_32,UNUSED,,32,,,,,,,,,
AF19,,IOBM,IO_L8P_SRCC_22,UNUSED,,22,,,,,,,,,
AF20,,IOBM,IO_L11P_SRCC_22,UNUSED,,22,,,,,,PROHIBITED,,,
AF21,ddr3_dq<45>,IOB,IO_L11N_SRCC_22,BIDIR,SSTL15_T_DCI,22,,,,NONE,,LOCATED,YES,SPLIT,
AF22,,,GND,,,,,,,,,,,,
AF23,RTM_D_P<3>,IOB,IO_L15P_FWE_B_24,INPUT,LVDS_25,24,,,,NONE,,LOCATED,NO,DIFF_TERM,
AF24,,IOBS,IO_L13N_D0_FS0_24,UNUSED,,24,,,,,,,,,
AF25,ddr3_cs_n<0>,IOB,IO_L13P_D1_FS1_24,OUTPUT,LVCMOS25*,24,12,SLOW,,,,UNLOCATED,NO,NONE,
AF26,,IOBM,IO_L11P_SRCC_12,UNUSED,,12,,,,,,,,,
AF27,,,VCCO_12,,,12,,,,,1.50,,,,
AF28,,IOBM,IO_L5P_12,UNUSED,,12,,,,,,,,,
AF29,ddr3_dq<14>,IOB,IO_L5N_12,BIDIR,SSTL15_T_DCI,12,,,,NONE,,LOCATED,YES,SPLIT,
AF30,,IOBM,IO_L10P_MRCC_12,UNUSED,,12,,,,,,PROHIBITED,,,
AF31,,IOBS,IO_L18N_13,UNUSED,,13,,,,,,,,,
AF32,,,GND,,,,,,,,,,,,
AF33,,IOBS,IO_L10N_MRCC_13,UNUSED,,13,,,,,,,,,
AF34,,IOBS,IO_L8N_SRCC_13,UNUSED,,13,,,,,,,,,
AG1,,,GND,,,,,,,,,,,,
AG2,,,MGTAVTT_S,,,,,,,,,,,,
AG3,,IPAD,MGTRXP0_113,UNUSED,,,,,,,,,,,
AG4,,IPAD,MGTRXN0_113,UNUSED,,,,,,,,,,,
AG5,,,GND,,,,,,,,,,,,
AG6,,,MGTAVCC_S,,,,,,,,,,,,
AG7,,,GND,,,,,,,,,,,,
AG8,MLVDS_RIN<5>,IOB,IO_L18P_A17_34,INPUT,LVCMOS25*,34,,,,NONE,,LOCATED,NO,NONE,
AG9,,,GND,,,,,,,,,,,,
AG10,ddr3_addr<7>,IOB,IO_L6N_33,OUTPUT,SSTL15,33,,,,,,LOCATED,NO,NONE,
AG11,ddr3_addr<3>,IOB,IO_L6P_33,OUTPUT,SSTL15,33,,,,,,LOCATED,NO,NONE,
AG12,ddr3_addr<8>,IOB,IO_L16P_33,OUTPUT,SSTL15,33,,,,,,LOCATED,NO,NONE,
AG13,ddr3_addr<10>,IOB,IO_L12N_VRP_33,OUTPUT,SSTL15,33,,,,,,LOCATED,NO,NONE,
AG14,,,VCCO_33,,,33,,,,,1.50,,,,
AG15,ddr3_dq<61>,IOB,IO_L0P_32,BIDIR,SSTL15_T_DCI,32,,,,NONE,,LOCATED,YES,SPLIT,
AG16,ddr3_dq<57>,IOB,IO_L4P_32,BIDIR,SSTL15_T_DCI,32,,,,NONE,,LOCATED,YES,SPLIT,
AG17,ddr3_dq<63>,IOB,IO_L8N_SRCC_32,BIDIR,SSTL15_T_DCI,32,,,,NONE,,LOCATED,YES,SPLIT,
AG18,,IOBS,IO_L12N_VRP_32,Termination Required,,32,,,TERMINATION,,,,,,
AG19,,,GND,,,,,,,,,,,,
AG20,ddr3_dq<47>,IOB,IO_L18P_22,BIDIR,SSTL15_T_DCI,22,,,,NONE,,LOCATED,YES,SPLIT,
AG21,ddr3_dq<46>,IOB,IO_L18N_22,BIDIR,SSTL15_T_DCI,22,,,,NONE,,LOCATED,YES,SPLIT,
AG22,ddr3_dqs_p<5>,IOBM,IO_L2P_22,BIDIR,DIFF_SSTL15_T_DCI,22,,,,NONE,,LOCATED,YES,SPLIT,
AG23,RTM_D_N<3>,IOB,IO_L15N_RS1_24,,LVDS_25,24,,,,,,LOCATED,NO,DIFF_TERM,
AG24,,,VCCO_24,,,24,,,,,2.50,,,,
AG25,,IOBM,IO_L2P_23,UNUSED,,23,,,,,,,,,
AG26,,IOBS,IO_L2N_23,UNUSED,,23,,,,,,,,,
AG27,,IOBM,IO_L9P_MRCC_12,UNUSED,,12,,,,,,PROHIBITED,,,
AG28,,IOBS,IO_L9N_MRCC_12,UNUSED,,12,,,,,,,,,
AG29,,,GND,,,,,,,,,,,,
AG30,ddr3_dq<10>,IOB,IO_L10N_MRCC_12,BIDIR,SSTL15_T_DCI,12,,,,NONE,,LOCATED,YES,SPLIT,
AG31,,IOBM,IO_L18P_13,UNUSED,,13,,,,,,,,,
AG32,,IOBS,IO_L16N_13,UNUSED,,13,,,,,,,,,
AG33,,IOBM,IO_L16P_13,UNUSED,,13,,,,,,,,,
AG34,,,VCCO_12,,,12,,,,,1.50,,,,
AH1,,OPAD,MGTTXP0_113,UNUSED,,,,,,,,,,,
AH2,,OPAD,MGTTXN0_113,UNUSED,,,,,,,,,,,
AH3,,,MGTAVTT_S,,,,,,,,,,,,
AH4,,,GND,,,,,,,,,,,,
AH5,,IPAD,MGTREFCLK1N_112,UNUSED,,,,,,,,,,,
AH6,,IPAD,MGTREFCLK1P_112,UNUSED,,,,,,,,,,,
AH7,,,GND,,,,,,,,,,,,
AH8,MLVDS_RIN<7>,IOB,IO_L18N_A16_34,INPUT,LVCMOS25*,34,,,,NONE,,LOCATED,NO,NONE,
AH9,P1720_DE_H<7>,IOB,IO_L11P_SRCC_34,OUTPUT,LVCMOS25*,34,12,SLOW,,,,LOCATED,NO,NONE,
AH10,ddr3_addr<4>,IOB,IO_L8N_SRCC_33,OUTPUT,SSTL15,33,,,,,,LOCATED,NO,NONE,
AH11,,,VCCO_33,,,33,,,,,1.50,,,,
AH12,ddr3_addr<6>,IOB,IO_L16N_33,OUTPUT,SSTL15,33,,,,,,LOCATED,NO,NONE,
AH13,ddr3_addr<5>,IOB,IO_L18P_33,OUTPUT,SSTL15,33,,,,,,LOCATED,NO,NONE,
AH14,,IOBS,IO_L18N_33,UNUSED,,33,,,,,,,,,
AH15,ddr3_dqs_n<7>,IOBS,IO_L2N_32,BIDIR,DIFF_SSTL15_T_DCI,32,,,,NONE,,LOCATED,NO,SPLIT,
AH16,,,GND,,,,,,,,,,,,
AH17,,IOBM,IO_L8P_SRCC_32,UNUSED,,32,,,,,,,,,
AH18,,IOBM,IO_L12P_VRN_32,Termination Required,,32,,,TERMINATION,,,,,,
AH19,,IOBS,IO_L14N_VREF_32,VREF Required,,32,,,,,0.75,,,,
AH20,,IOBS,IO_L12N_VRP_22,Termination Required,,22,,,TERMINATION,,,,,,
AH21,,,VCCO_22,,,22,,,,,1.50,,,,
AH22,ddr3_dqs_n<5>,IOBS,IO_L2N_22,BIDIR,DIFF_SSTL15_T_DCI,22,,,,NONE,,LOCATED,NO,SPLIT,
AH23,,IOBM,IO_L11P_SRCC_23,UNUSED,,23,,,,,,PROHIBITED,,,
AH24,ddr3_dq<29>,IOB,IO_L11N_SRCC_23,BIDIR,SSTL15_T_DCI,23,,,,NONE,,LOCATED,YES,SPLIT,
AH25,,IOBM,IO_L8P_SRCC_23,UNUSED,,23,,,,,,PROHIBITED,,,
AH26,,,GND,,,,,,,,,,,,
AH27,,IOBM,IO_L0P_23,UNUSED,,23,,,,,,,,,
AH28,,IOBS,IO_L0N_23,UNUSED,,23,,,,,,,,,
AH29,ddr3_dqs_p<1>,IOBM,IO_L7P_12,BIDIR,DIFF_SSTL15_T_DCI,12,,,,NONE,,LOCATED,YES,SPLIT,
AH30,ddr3_dqs_n<1>,IOBS,IO_L7N_12,BIDIR,DIFF_SSTL15_T_DCI,12,,,,NONE,,LOCATED,NO,SPLIT,
AH31,,,VCCO_12,,,12,,,,,1.50,,,,
AH32,ddr3_dq<8>,IOB,IO_L2N_12,BIDIR,SSTL15_T_DCI,12,,,,NONE,,LOCATED,YES,SPLIT,
AH33,ddr3_dq<12>,IOB,IO_L2P_12,BIDIR,SSTL15_T_DCI,12,,,,NONE,,LOCATED,YES,SPLIT,
AH34,,IOBS,IO_L4N_VREF_12,VREF Required,,12,,,,,0.75,,,,
AJ1,,,GND,,,,,,,,,,,,
AJ2,,,GND,,,,,,,,,,,,
AJ3,,IPAD,MGTRXP3_112,UNUSED,,,,,,,,,,,
AJ4,,IPAD,MGTRXN3_112,UNUSED,,,,,,,,,,,
AJ5,,,GND,,,,,,,,,,,,
AJ6,,,MGTAVCC_S,,,,,,,,,,,,
AJ7,,,GND,,,,,,,,,,,,
AJ8,,,VCCO_34,,,34,,,,,2.50,,,,
AJ9,P1720_DE_H<6>,IOB,IO_L11N_SRCC_34,OUTPUT,LVCMOS25*,34,12,SLOW,,,,LOCATED,NO,NONE,
AJ10,,IOBM,IO_L8P_SRCC_33,UNUSED,,33,,,,,,PROHIBITED,,,
AJ11,ddr3_addr<12>,IOB,IO_L1P_33,OUTPUT,SSTL15,33,,,,,,LOCATED,NO,NONE,
AJ12,ddr3_addr<13>,IOB,IO_L3N_33,OUTPUT,SSTL15,33,,,,,,LOCATED,NO,NONE,
AJ13,,,GND,,,,,,,,,,,,
AJ14,ddr3_dm<7>,IOB,IO_L1N_32,OUTPUT,SSTL15,32,,,,,,LOCATED,YES,NONE,
AJ15,ddr3_dqs_p<7>,IOBM,IO_L2P_32,BIDIR,DIFF_SSTL15_T_DCI,32,,,,NONE,,LOCATED,YES,SPLIT,
AJ16,ddr3_dq<56>,IOB,IO_L6N_32,BIDIR,SSTL15_T_DCI,32,,,,NONE,,LOCATED,YES,SPLIT,
AJ17,ddr3_dq<58>,IOB,IO_L6P_32,BIDIR,SSTL15_T_DCI,32,,,,NONE,,LOCATED,YES,SPLIT,
AJ18,,,VCCO_32,,,32,,,,,1.50,,,,
AJ19,,IOBM,IO_L14P_32,UNUSED,,32,,,,,,,,,
AJ20,,IOBM,IO_L12P_VRN_22,Termination Required,,22,,,TERMINATION,,,,,,
AJ21,ddr3_dq<44>,IOB,IO_L16N_22,BIDIR,SSTL15_T_DCI,22,,,,NONE,,LOCATED,YES,SPLIT,
AJ22,,IOBS,IO_L4N_VREF_22,VREF Required,,22,,,,,0.75,,,,
AJ23,,,GND,,,,,,,,,,,,
AJ24,ddr3_dq<25>,IOB,IO_L14P_23,BIDIR,SSTL15_T_DCI,23,,,,NONE,,LOCATED,YES,SPLIT,
AJ25,ddr3_dq<31>,IOB,IO_L8N_SRCC_23,BIDIR,SSTL15_T_DCI,23,,,,NONE,,LOCATED,YES,SPLIT,
AJ26,,IOBS,IO_L12N_VRP_23,Termination Required,,23,,,TERMINATION,,,,,,
AJ27,ddr3_dq<28>,IOB,IO_L10N_MRCC_23,BIDIR,SSTL15_T_DCI,23,,,,NONE,,LOCATED,YES,SPLIT,
AJ28,,,VCCO_23,,,23,,,,,1.50,,,,
AJ29,,IOBM,IO_L13P_12,UNUSED,,12,,,,,,,,,
AJ30,ddr3_dq<15>,IOB,IO_L13N_12,BIDIR,SSTL15_T_DCI,12,,,,NONE,,LOCATED,YES,SPLIT,
AJ31,,IOBM,IO_L12P_VRN_12,Termination Required,,12,,,TERMINATION,,,,,,
AJ32,,IOBS,IO_L12N_VRP_12,Termination Required,,12,,,TERMINATION,,,,,,
AJ33,,,GND,,,,,,,,,,,,
AJ34,ddr3_dm<1>,IOB,IO_L4P_12,OUTPUT,SSTL15,12,,,,,,LOCATED,YES,NONE,
AK1,,OPAD,MGTTXP3_112,UNUSED,,,,,,,,,,,
AK2,,OPAD,MGTTXN3_112,UNUSED,,,,,,,,,,,
AK3,,,GND,,,,,,,,,,,,
AK4,,,GND,,,,,,,,,,,,
AK5,MGTCLK0_112_N,IPAD,MGTREFCLK0N_112,,,,,,,,,LOCATED,NO,,
AK6,MGTCLK0_112_P,IPAD,MGTREFCLK0P_112,,,,,,,,,LOCATED,NO,,
AK7,,,GND,,,,,,,,,,,,
AK8,MMU_FPGA_RXD,IOB,IO_L13P_A01_D17_34,INPUT,LVCMOS25*,34,,,,NONE,,LOCATED,NO,NONE,
AK9,FPGA_WATCHDOG,IOB,IO_L15P_A23_34,OUTPUT,LVCMOS25*,34,12,SLOW,,,,LOCATED,NO,NONE,
AK10,,,GND,,,,,,,,,,,,
AK11,ddr3_addr<1>,IOB,IO_L1N_33,OUTPUT,SSTL15,33,,,,,,LOCATED,NO,NONE,
AK12,ddr3_addr<11>,IOB,IO_L3P_33,OUTPUT,SSTL15,33,,,,,,LOCATED,NO,NONE,
AK13,,IOBM,IO_L17P_33,UNUSED,,33,,,,,,,,,
AK14,ddr3_dq<50>,IOB,IO_L1P_32,BIDIR,SSTL15_T_DCI,32,,,,NONE,,LOCATED,YES,SPLIT,
AK15,,,VCCO_32,,,32,,,,,1.50,,,,
AK16,ddr3_dq<60>,IOB,IO_L19N_32,BIDIR,SSTL15_T_DCI,32,,,,NONE,,LOCATED,YES,SPLIT,
AK17,ddr3_dq<62>,IOB,IO_L17N_32,BIDIR,SSTL15_T_DCI,32,,,,NONE,,LOCATED,YES,SPLIT,
AK18,,IOBM,IO_L17P_32,UNUSED,,32,,,,,,,,,
AK19,,IOBM,IO_L10P_MRCC_22,UNUSED,,22,,,,,,PROHIBITED,,,
AK20,,,GND,,,,,,,,,,,,
AK21,ddr3_dq<40>,IOB,IO_L16P_22,BIDIR,SSTL15_T_DCI,22,,,,NONE,,LOCATED,YES,SPLIT,
AK22,ddr3_dq<42>,IOB,IO_L4P_22,BIDIR,SSTL15_T_DCI,22,,,,NONE,,LOCATED,YES,SPLIT,
AK23,ddr3_dq<27>,IOB,IO_L18P_23,BIDIR,SSTL15_T_DCI,23,,,,NONE,,LOCATED,YES,SPLIT,
AK24,,IOBS,IO_L14N_VREF_23,VREF Required,,23,,,,,0.75,,,,
AK25,,,VCCO_23,,,23,,,,,1.50,,,,
AK26,,IOBM,IO_L12P_VRN_23,Termination Required,,23,,,TERMINATION,,,,,,
AK27,,IOBM,IO_L10P_MRCC_23,UNUSED,,23,,,,,,,,,
AK28,ddr3_dq<26>,IOB,IO_L6N_23,BIDIR,SSTL15_T_DCI,23,,,,NONE,,LOCATED,YES,SPLIT,
AK29,,IOBS,IO_L4N_VREF_23,VREF Required,,23,,,,,0.75,,,,
AK30,,,GND,,,,,,,,,,,,
AK31,ddr3_dq<13>,IOB,IO_L15N_12,BIDIR,SSTL15_T_DCI,12,,,,NONE,,LOCATED,YES,SPLIT,
AK32,,IOBS,IO_L14N_VREF_12,VREF Required,,12,,,,,0.75,,,,
AK33,ddr3_dq<3>,IOB,IO_L14P_12,BIDIR,SSTL15_T_DCI,12,,,,NONE,,LOCATED,YES,SPLIT,
AK34,ddr3_dq<5>,IOB,IO_L6N_12,BIDIR,SSTL15_T_DCI,12,,,,NONE,,LOCATED,YES,SPLIT,
AL1,,,GND,,,,,,,,,,,,
AL2,,,MGTAVTT_S,,,,,,,,,,,,
AL3,SFF_RX_P<0>,IPAD,MGTRXP2_112,,,,,,,,,LOCATED,NO,,
AL4,SFF_RX_N<0>,IPAD,MGTRXN2_112,,,,,,,,,LOCATED,NO,,
AL5,,,GND,,,,,,,,,,,,
AL6,,,MGTAVCC_S,,,,,,,,,,,,
AL7,,,GND,,,,,,,,,,,,
AL8,MMU_FPGA_TXD,IOB,IO_L13N_A00_D16_34,INPUT,LVCMOS25*,34,,,,NONE,,LOCATED,NO,NONE,
AL9,PCIE_RESET_L,IOB,IO_L15N_A22_34,INPUT,LVCMOS25*,34,,,,NONE,,LOCATED,NO,NONE,
AL10,ddr3_addr<9>,IOB,IO_L5N_33,OUTPUT,SSTL15,33,,,,,,LOCATED,NO,NONE,
AL11,ddr3_addr<0>,IOB,IO_L7P_33,OUTPUT,SSTL15,33,,,,,,LOCATED,NO,NONE,
AL12,,,VCCO_33,,,33,,,,,1.50,,,,
AL13,,IOBS,IO_L17N_33,UNUSED,,33,,,,,,,,,
AL14,ddr3_dq<54>,IOB,IO_L3N_32,BIDIR,SSTL15_T_DCI,32,,,,NONE,,LOCATED,YES,SPLIT,
AL15,ddr3_dq<48>,IOB,IO_L3P_32,BIDIR,SSTL15_T_DCI,32,,,,NONE,,LOCATED,YES,SPLIT,
AL16,ddr3_dq<51>,IOB,IO_L19P_32,BIDIR,SSTL15_T_DCI,32,,,,NONE,,LOCATED,YES,SPLIT,
AL17,,,GND,,,,,,,,,,,,
AL18,ddr3_dq<43>,IOB,IO_L1N_22,BIDIR,SSTL15_T_DCI,22,,,,NONE,,LOCATED,YES,SPLIT,
AL19,ddr3_dm<5>,IOB,IO_L10N_MRCC_22,OUTPUT,SSTL15,22,,,,,,LOCATED,YES,NONE,
AL20,,IOBS,IO_L7N_22,UNUSED,,22,,,,,,,,,
AL21,,IOBS,IO_L13N_22,UNUSED,,22,,,,,,,,,
AL22,,,VCCO_22,,,22,,,,,1.50,,,,
AL23,,IOBS,IO_L15N_22,UNUSED,,22,,,,,,,,,
AL24,,IOBS,IO_L18N_23,UNUSED,,23,,,,,,,,,
AL25,ddr3_dqs_n<3>,IOBS,IO_L16N_23,BIDIR,DIFF_SSTL15_T_DCI,23,,,,NONE,,LOCATED,NO,SPLIT,
AL26,ddr3_dqs_p<2>,IOBM,IO_L13P_23,BIDIR,DIFF_SSTL15_T_DCI,23,,,,NONE,,LOCATED,YES,SPLIT,
AL27,,,GND,,,,,,,,,,,,
AL28,ddr3_dq<24>,IOB,IO_L6P_23,BIDIR,SSTL15_T_DCI,23,,,,NONE,,LOCATED,YES,SPLIT,
AL29,ddr3_dq<30>,IOB,IO_L4P_23,BIDIR,SSTL15_T_DCI,23,,,,NONE,,LOCATED,YES,SPLIT,
AL30,ddr3_dq<11>,IOB,IO_L19P_12,BIDIR,SSTL15_T_DCI,12,,,,NONE,,LOCATED,YES,SPLIT,
AL31,ddr3_dq<9>,IOB,IO_L15P_12,BIDIR,SSTL15_T_DCI,12,,,,NONE,,LOCATED,YES,SPLIT,
AL32,,,VCCO_12,,,12,,,,,1.50,,,,
AL33,ddr3_dq<7>,IOB,IO_L16N_12,BIDIR,SSTL15_T_DCI,12,,,,NONE,,LOCATED,YES,SPLIT,
AL34,ddr3_dq<1>,IOB,IO_L6P_12,BIDIR,SSTL15_T_DCI,12,,,,NONE,,LOCATED,YES,SPLIT,
AM1,SFF_TX_P<0>,OPAD,MGTTXP2_112,,,,,,,,,LOCATED,NO,,
AM2,SFF_TX_N<0>,OPAD,MGTTXN2_112,,,,,,,,,LOCATED,NO,,
AM3,,,MGTAVTT_S,,,,,,,,,,,,
AM4,,,GND,,,,,,,,,,,,
AM5,,IPAD,MGTRXP1_112,UNUSED,,,,,,,,,,,
AM6,,IPAD,MGTRXN1_112,UNUSED,,,,,,,,,,,
AM7,,,GND,,,,,,,,,,,,
AM8,,,GND,,,,,,,,,,,,
AM9,,,VCCO_34,,,34,,,,,2.50,,,,
AM10,ddr3_ba<1>,IOB,IO_L5P_33,OUTPUT,SSTL15,33,,,,,,LOCATED,NO,NONE,
AM11,ddr3_odt<0>,IOB,IO_L7N_33,OUTPUT,SSTL15,33,,,,,,LOCATED,NO,NONE,
AM12,ddr3_ba<0>,IOB,IO_L13P_33,OUTPUT,SSTL15,33,,,,,,LOCATED,NO,NONE,
AM13,,IOBS,IO_L15N_33,UNUSED,,33,,,,,,,,,
AM14,,,GND,,,,,,,,,,,,
AM15,ddr3_dqs_n<6>,IOBS,IO_L5N_32,BIDIR,DIFF_SSTL15_T_DCI,32,,,,NONE,,LOCATED,NO,SPLIT,
AM16,ddr3_dm<6>,IOB,IO_L15N_32,OUTPUT,SSTL15,32,,,,,,LOCATED,YES,NONE,
AM17,ddr3_dq<49>,IOB,IO_L15P_32,BIDIR,SSTL15_T_DCI,32,,,,NONE,,LOCATED,YES,SPLIT,
AM18,ddr3_dq<34>,IOB,IO_L1P_22,BIDIR,SSTL15_T_DCI,22,,,,NONE,,LOCATED,YES,SPLIT,
AM19,,,VCCO_22,,,22,,,,,1.50,,,,
AM20,ddr3_dq<36>,IOB,IO_L7P_22,BIDIR,SSTL15_T_DCI,22,,,,NONE,,LOCATED,YES,SPLIT,
AM21,ddr3_dq<33>,IOB,IO_L13P_22,BIDIR,SSTL15_T_DCI,22,,,,NONE,,LOCATED,YES,SPLIT,
AM22,,IOBM,IO_L17P_22,UNUSED,,22,,,,,,,,,
AM23,ddr3_dq<35>,IOB,IO_L15P_22,BIDIR,SSTL15_T_DCI,22,,,,NONE,,LOCATED,YES,SPLIT,
AM24,,,GND,,,,,,,,,,,,
AM25,ddr3_dqs_p<3>,IOBM,IO_L16P_23,BIDIR,DIFF_SSTL15_T_DCI,23,,,,NONE,,LOCATED,YES,SPLIT,
AM26,ddr3_dqs_n<2>,IOBS,IO_L13N_23,BIDIR,DIFF_SSTL15_T_DCI,23,,,,NONE,,LOCATED,NO,SPLIT,
AM27,ddr3_dm<2>,IOB,IO_L9N_MRCC_23,OUTPUT,SSTL15,23,,,,,,LOCATED,YES,NONE,
AM28,ddr3_dq<17>,IOB,IO_L7N_23,BIDIR,SSTL15_T_DCI,23,,,,NONE,,LOCATED,YES,SPLIT,
AM29,,,VCCO_23,,,23,,,,,1.50,,,,
AM30,,IOBS,IO_L1N_23,UNUSED,,23,,,,,,,,,
AM31,ddr3_dm<0>,IOB,IO_L19N_12,OUTPUT,SSTL15,12,,,,,,LOCATED,YES,NONE,
AM32,ddr3_dqs_n<0>,IOBS,IO_L17N_12,BIDIR,DIFF_SSTL15_T_DCI,12,,,,NONE,,LOCATED,NO,SPLIT,
AM33,ddr3_dq<4>,IOB,IO_L16P_12,BIDIR,SSTL15_T_DCI,12,,,,NONE,,LOCATED,YES,SPLIT,
AM34,,,GND,,,,,,,,,,,,
AN1,,,GND,,,,,,,,,,,,
AN2,,,GND,,,,,,,,,,,,
AN3,,OPAD,MGTTXP1_112,UNUSED,,,,,,,,,,,
AN4,,OPAD,MGTTXN1_112,UNUSED,,,,,,,,,,,
AN5,,,GND,,,,,,,,,,,,
AN6,,,MGTAVCC_S,,,,,,,,,,,,
AN7,,,MGTRREF_115,,,,,,,,,,,,
AN8,,,GND,,,,,,,,,,,,
AN9,MMC_SPI_MISO,IOB,IO_L17P_A19_34,OUTPUT,LVCMOS25*,34,12,SLOW,,,,LOCATED,NO,NONE,
AN10,MMC_SPI_SCK,IOB,IO_L19P_VRN_34,INPUT,LVCMOS25*,34,,,,NONE,,LOCATED,NO,NONE,
AN11,,,GND,,,,,,,,,,,,
AN12,ddr3_ras_n,IOB,IO_L13N_33,OUTPUT,SSTL15,33,,,,,,LOCATED,NO,NONE,
AN13,,IOBM,IO_L15P_33,UNUSED,,33,,,,,,,,,
AN14,,IOBS,IO_L19N_33,UNUSED,,33,,,,,,,,,
AN15,ddr3_dqs_p<6>,IOBM,IO_L5P_32,BIDIR,DIFF_SSTL15_T_DCI,32,,,,NONE,,LOCATED,YES,SPLIT,
AN16,,,VCCO_32,,,32,,,,,1.50,,,,
AN17,ddr3_dq<53>,IOB,IO_L13P_32,BIDIR,SSTL15_T_DCI,32,,,,NONE,,LOCATED,YES,SPLIT,
AN18,ddr3_dq<38>,IOB,IO_L3N_22,BIDIR,SSTL15_T_DCI,22,,,,NONE,,LOCATED,YES,SPLIT,
AN19,ddr3_dqs_p<4>,IOBM,IO_L5P_22,BIDIR,DIFF_SSTL15_T_DCI,22,,,,NONE,,LOCATED,YES,SPLIT,
AN20,ddr3_dqs_n<4>,IOBS,IO_L5N_22,BIDIR,DIFF_SSTL15_T_DCI,22,,,,NONE,,LOCATED,NO,SPLIT,
AN21,,,GND,,,,,,,,,,,,
AN22,,IOBS,IO_L17N_22,UNUSED,,22,,,,,,,,,
AN23,ddr3_dq<37>,IOB,IO_L19N_22,BIDIR,SSTL15_T_DCI,22,,,,NONE,,LOCATED,YES,SPLIT,
AN24,ddr3_dm<3>,IOB,IO_L17N_23,OUTPUT,SSTL15,23,,,,,,LOCATED,YES,NONE,
AN25,ddr3_dq<22>,IOB,IO_L17P_23,BIDIR,SSTL15_T_DCI,23,,,,NONE,,LOCATED,YES,SPLIT,
AN26,,,VCCO_23,,,23,,,,,1.50,,,,
AN27,,IOBM,IO_L9P_MRCC_23,UNUSED,,23,,,,,,PROHIBITED,,,
AN28,ddr3_dq<23>,IOB,IO_L7P_23,BIDIR,SSTL15_T_DCI,23,,,,NONE,,LOCATED,YES,SPLIT,
AN29,ddr3_dq<19>,IOB,IO_L5P_23,BIDIR,SSTL15_T_DCI,23,,,,NONE,,LOCATED,YES,SPLIT,
AN30,,IOBM,IO_L1P_23,UNUSED,,23,,,,,,,,,
AN31,,,GND,,,,,,,,,,,,
AN32,ddr3_dqs_p<0>,IOBM,IO_L17P_12,BIDIR,DIFF_SSTL15_T_DCI,12,,,,NONE,,LOCATED,YES,SPLIT,
AN33,,IOBM,IO_L8P_SRCC_12,UNUSED,,12,,,,,,PROHIBITED,,,
AN34,ddr3_dq<0>,IOB,IO_L8N_SRCC_12,BIDIR,SSTL15_T_DCI,12,,,,NONE,,LOCATED,YES,SPLIT,
AP1,SFF_TX_P<1>,OPAD,MGTTXP0_112,,,,,,,,,LOCATED,NO,,
AP2,SFF_TX_N<1>,OPAD,MGTTXN0_112,,,,,,,,,LOCATED,NO,,
AP3,,,GND,,,,,,,,,,,,
AP4,,,GND,,,,,,,,,,,,
AP5,SFF_RX_P<1>,IPAD,MGTRXP0_112,,,,,,,,,LOCATED,NO,,
AP6,SFF_RX_N<1>,IPAD,MGTRXN0_112,,,,,,,,,LOCATED,NO,,
AP7,,,MGTAVTTRCAL_115,,,,,,,,,,,,
AP8,,,GND,,,,,,,,,,,,
AP9,MMC_SPI_MOSI,IOB,IO_L17N_A18_34,INPUT,LVCMOS25*,34,,,,NONE,,LOCATED,NO,NONE,
AP10,MMC_SPI_SS_L,IOB,IO_L19N_VRP_34,INPUT,LVCMOS25*,34,,,,NONE,,LOCATED,NO,NONE,
AP11,ddr3_cas_n,IOB,IO_L11P_SRCC_33,OUTPUT,SSTL15,33,,,,,,LOCATED,NO,NONE,
AP12,ddr3_we_n,IOB,IO_L11N_SRCC_33,OUTPUT,SSTL15,33,,,,,,LOCATED,NO,NONE,
AP13,,,VCCO_33,,,33,,,,,1.50,,,,
AP14,,IOBM,IO_L19P_33,UNUSED,,33,,,,,,,,,
AP15,ddr3_dq<52>,IOB,IO_L7N_32,BIDIR,SSTL15_T_DCI,32,,,,NONE,,LOCATED,YES,SPLIT,
AP16,,IOBM,IO_L7P_32,UNUSED,,32,,,,,,,,,
AP17,ddr3_dq<55>,IOB,IO_L13N_32,BIDIR,SSTL15_T_DCI,32,,,,NONE,,LOCATED,YES,SPLIT,
AP18,,,GND,,,,,,,,,,,,
AP19,ddr3_dq<32>,IOB,IO_L3P_22,BIDIR,SSTL15_T_DCI,22,,,,NONE,,LOCATED,YES,SPLIT,
AP20,,IOBM,IO_L9P_MRCC_22,UNUSED,,22,,,,,,,,,
AP21,ddr3_dm<4>,IOB,IO_L9N_MRCC_22,OUTPUT,SSTL15,22,,,,,,LOCATED,YES,NONE,
AP22,ddr3_dq<39>,IOB,IO_L19P_22,BIDIR,SSTL15_T_DCI,22,,,,NONE,,LOCATED,YES,SPLIT,
AP23,,,VCCO_22,,,22,,,,,1.50,,,,
AP24,ddr3_dq<18>,IOB,IO_L19N_23,BIDIR,SSTL15_T_DCI,23,,,,NONE,,LOCATED,YES,SPLIT,
AP25,ddr3_dq<16>,IOB,IO_L19P_23,BIDIR,SSTL15_T_DCI,23,,,,NONE,,LOCATED,YES,SPLIT,
AP26,ddr3_dq<20>,IOB,IO_L15N_23,BIDIR,SSTL15_T_DCI,23,,,,NONE,,LOCATED,YES,SPLIT,
AP27,,IOBM,IO_L15P_23,UNUSED,,23,,,,,,,,,
AP28,,,GND,,,,,,,,,,,,
AP29,,IOBS,IO_L5N_23,UNUSED,,23,,,,,,,,,
AP30,ddr3_dq<21>,IOB,IO_L3P_23,BIDIR,SSTL15_T_DCI,23,,,,NONE,,LOCATED,YES,SPLIT,
AP31,,IOBS,IO_L3N_23,UNUSED,,23,,,,,,,,,
AP32,ddr3_dq<2>,IOB,IO_L18P_12,BIDIR,SSTL15_T_DCI,12,,,,NONE,,LOCATED,YES,SPLIT,
AP33,ddr3_dq<6>,IOB,IO_L18N_12,BIDIR,SSTL15_T_DCI,12,,,,NONE,,LOCATED,YES,SPLIT,
AP34,,,GND,,,,,,,,,,,,
B1,,OPAD,MGTTXP2_116,UNUSED,,,,,,,,,,,
B2,,OPAD,MGTTXN2_116,UNUSED,,,,,,,,,,,
B3,,,GND,,,,,,,,,,,,
B4,,,GND,,,,,,,,,,,,
B5,,IPAD,MGTRXP3_116,UNUSED,,,,,,,,,,,
B6,,IPAD,MGTRXN3_116,UNUSED,,,,,,,,,,,
B7,,,GND,,,,,,,,,,,,
B8,RTM_D_P<5>,IOB,IO_L7P_A05_D21_34,INPUT,LVDS_25,34,,,,NONE,,LOCATED,NO,DIFF_TERM,
B9,,,VCCO_34,,,34,,,,,2.50,,,,
B10,RTM_D_N<7>,IOBS,IO_L1N_GC_34,TRISTATE,LVDS_25,34,,,,,,LOCATED,NO,NONE,
B11,ADC5_D_N<3>,IOB,IO_L13N_SM6N_35,,LVDS_25,35,,,,,,LOCATED,NO,DIFF_TERM,
B12,ADC5_D_P<10>,IOB,IO_L7P_SM4P_35,INPUT,LVDS_25,35,,,,NONE,,LOCATED,NO,DIFF_TERM,
B13,ADC5_D_N<10>,IOB,IO_L7N_SM4N_35,,LVDS_25,35,,,,,,LOCATED,NO,DIFF_TERM,
B14,,,GND,,,,,,,,,,,,
B15,ADC4_D_N<10>,IOB,IO_L15N_36,,LVDS_25,36,,,,,,LOCATED,NO,DIFF_TERM,
B16,ADC4_D_N<16>,IOB,IO_L11N_SRCC_36,,LVDS_25,36,,,,,,LOCATED,NO,DIFF_TERM,
B17,ADC4_D_N<13>,IOB,IO_L5N_36,,LVDS_25,36,,,,,,LOCATED,NO,DIFF_TERM,
B18,ADC3_D_P<1>,IOB,IO_L17P_26,INPUT,LVDS_25,26,,,,NONE,,LOCATED,NO,DIFF_TERM,
B19,,,VCCO_26,,,26,,,,,any******,,,,
B20,ADC3_D_P<2>,IOB,IO_L9P_MRCC_26,INPUT,LVDS_25,26,,,,NONE,,LOCATED,NO,DIFF_TERM,
B21,ADC3_D_P<9>,IOB,IO_L5P_26,INPUT,LVDS_25,26,,,,NONE,,LOCATED,NO,DIFF_TERM,
B22,ADC3_D_N<9>,IOB,IO_L5N_26,,LVDS_25,26,,,,,,LOCATED,NO,DIFF_TERM,
B23,ADC3_D_P<11>,IOB,IO_L3P_26,INPUT,LVDS_25,26,,,,NONE,,LOCATED,NO,DIFF_TERM,
B24,,,GND,,,,,,,,,,,,
B25,ADC2_D_P<2>,IOB,IO_L3P_25,INPUT,LVDS_25,25,,,,NONE,,LOCATED,NO,DIFF_TERM,
B26,ADC2_D_P<0>,IOB,IO_L5P_25,INPUT,LVDS_25,25,,,,NONE,,LOCATED,NO,DIFF_TERM,
B27,ADC2_D_P<4>,IOB,IO_L7P_25,INPUT,LVDS_25,25,,,,NONE,,LOCATED,NO,DIFF_TERM,
B28,ADC2_D_N<5>,IOB,IO_L9N_MRCC_25,,LVDS_25,25,,,,,,LOCATED,NO,DIFF_TERM,
B29,,,VCCO_25,,,25,,,,,2.50,,,,
B30,ADC2_D_N<12>,IOB,IO_L15N_25,,LVDS_25,25,,,,,,LOCATED,NO,DIFF_TERM,
B31,ADC2_D_P<14>,IOB,IO_L19P_GC_25,INPUT,LVDS_25,25,,,,NONE,,LOCATED,NO,DIFF_TERM,
B32,ADC1_D_N<9>,IOB,IO_L0N_16,,LVDS_25,16,,,,,,LOCATED,NO,DIFF_TERM,
B33,ADC1_D_N<4>,IOB,IO_L4N_VREF_16,,LVDS_25,16,,,,,,LOCATED,NO,DIFF_TERM,
B34,ADC1_D_N<14>,IOB,IO_L6N_16,,LVDS_25,16,,,,,,LOCATED,NO,DIFF_TERM,
C1,,,GND,,,,,,,,,,,,
C2,,,MGTAVTT_N,,,,,,,,,,,,
C3,,OPAD,MGTTXP1_116,UNUSED,,,,,,,,,,,
C4,,OPAD,MGTTXN1_116,UNUSED,,,,,,,,,,,
C5,,,GND,,,,,,,,,,,,
C6,,,MGTAVCC_N,,,,,,,,,,,,
C7,,,GND,,,,,,,,,,,,
C8,RTM_D_N<5>,IOB,IO_L7N_A04_D20_34,,LVDS_25,34,,,,,,LOCATED,NO,DIFF_TERM,
C9,,IOBM,IO_L4P_A11_D27_34,UNUSED,,34,,,,,,,,,
C10,P1720_DE_H<0>,IOB,IO_L3P_A13_D29_34,OUTPUT,LVCMOS25*,34,12,SLOW,,,,LOCATED,NO,NONE,
C11,,,GND,,,,,,,,,,,,
C12,ADC5_DCO_N,IOB,IO_L11N_SRCC_35,,LVDS_25,35,,,,,,LOCATED,NO,DIFF_TERM,
C13,ADC5_DCO_P,IOB,IO_L11P_SRCC_35,INPUT,LVDS_25,35,,,,NONE,,LOCATED,NO,DIFF_TERM,
C14,ADC5_D_N<8>,IOB,IO_L1N_35,,LVDS_25,35,,,,,,LOCATED,NO,DIFF_TERM,
C15,ADC4_D_N<7>,IOB,IO_L19N_36,,LVDS_25,36,,,,,,LOCATED,NO,DIFF_TERM,
C16,,,VCCO_36,,,36,,,,,2.50,,,,
C17,ADC4_D_P<13>,IOB,IO_L5P_36,INPUT,LVDS_25,36,,,,NONE,,LOCATED,NO,DIFF_TERM,
C18,ADC3_D_N<1>,IOB,IO_L17N_26,,LVDS_25,26,,,,,,LOCATED,NO,DIFF_TERM,
C19,ADC3_D_N<2>,IOB,IO_L9N_MRCC_26,,LVDS_25,26,,,,,,LOCATED,NO,DIFF_TERM,
C20,EXT_TRG_P<3>,IOB,IO_L0P_26,INPUT,LVDS_25,26,,,,NONE,,LOCATED,NO,DIFF_TERM,
C21,,,GND,,,,,,,,,,,,
C22,ADC3_D_P<5>,IOB,IO_L19P_26,INPUT,LVDS_25,26,,,,NONE,,LOCATED,NO,DIFF_TERM,
C23,ADC3_D_N<11>,IOB,IO_L3N_26,,LVDS_25,26,,,,,,LOCATED,NO,DIFF_TERM,
C24,ADC2_D_P<6>,IOB,IO_L1P_25,INPUT,LVDS_25,25,,,,NONE,,LOCATED,NO,DIFF_TERM,
C25,ADC2_D_N<6>,IOB,IO_L1N_25,,LVDS_25,25,,,,,,LOCATED,NO,DIFF_TERM,
C26,,,VCCO_25,,,25,,,,,2.50,,,,
C27,ADC2_D_N<4>,IOB,IO_L7N_25,,LVDS_25,25,,,,,,LOCATED,NO,DIFF_TERM,
C28,ADC2_D_P<5>,IOB,IO_L9P_MRCC_25,INPUT,LVDS_25,25,,,,NONE,,LOCATED,NO,DIFF_TERM,
C29,ADC2_D_P<16>,IOB,IO_L10P_MRCC_25,INPUT,LVDS_25,25,,,,NONE,,LOCATED,NO,DIFF_TERM,
C30,ADC2_D_P<9>,IOB,IO_L17P_25,INPUT,LVDS_25,25,,,,NONE,,LOCATED,NO,DIFF_TERM,
C31,,,GND,,,,,,,,,,,,
C32,ADC1_D_P<9>,IOB,IO_L0P_16,INPUT,LVDS_25,16,,,,NONE,,LOCATED,NO,DIFF_TERM,
C33,ADC1_D_P<14>,IOB,IO_L6P_16,INPUT,LVDS_25,16,,,,NONE,,LOCATED,NO,DIFF_TERM,
C34,ADC1_D_N<16>,IOB,IO_L8N_SRCC_16,,LVDS_25,16,,,,,,LOCATED,NO,DIFF_TERM,
D1,,OPAD,MGTTXP0_116,UNUSED,,,,,,,,,,,
D2,,OPAD,MGTTXN0_116,UNUSED,,,,,,,,,,,
D3,,,MGTAVTT_N,,,,,,,,,,,,
D4,,,GND,,,,,,,,,,,,
D5,,IPAD,MGTRXP2_116,UNUSED,,,,,,,,,,,
D6,,IPAD,MGTRXN2_116,UNUSED,,,,,,,,,,,
D7,,,GND,,,,,,,,,,,,
D8,,,GND,,,,,,,,,,,,
D9,,IOBS,IO_L4N_VREF_A10_D26_34,UNUSED,,34,,,,,,,,,
D10,P1720_DE_H<1>,IOB,IO_L3N_A12_D28_34,OUTPUT,LVCMOS25*,34,12,SLOW,,,,LOCATED,NO,NONE,
D11,ADC5_D_P<2>,IOB,IO_L19P_GC_35,INPUT,LVDS_25,35,,,,NONE,,LOCATED,NO,DIFF_TERM,
D12,ADC5_D_P<12>,IOB,IO_L17P_35,INPUT,LVDS_25,35,,,,NONE,,LOCATED,NO,DIFF_TERM,
D13,,,VCCO_35,,,35,,,,,2.50,,,,
D14,ADC5_D_P<8>,IOB,IO_L1P_35,INPUT,LVDS_25,35,,,,NONE,,LOCATED,NO,DIFF_TERM,
D15,ADC4_D_P<7>,IOB,IO_L19P_36,INPUT,LVDS_25,36,,,,NONE,,LOCATED,NO,DIFF_TERM,
D16,ADC4_D_N<0>,IOB,IO_L13N_36,,LVDS_25,36,,,,,,LOCATED,NO,DIFF_TERM,
D17,ADC4_D_N<14>,IOB,IO_L1N_36,,LVDS_25,36,,,,,,LOCATED,NO,DIFF_TERM,
D18,,,GND,,,,,,,,,,,,
D19,ADC3_D_N<6>,IOB,IO_L13N_26,,LVDS_25,26,,,,,,LOCATED,NO,DIFF_TERM,
D20,EXT_TRG_N<3>,IOB,IO_L0N_26,,LVDS_25,26,,,,,,LOCATED,NO,DIFF_TERM,
D21,ADC3_D_P<4>,IOB,IO_L12P_VRN_26,INPUT,LVDS_25,26,,,,NONE,,LOCATED,NO,DIFF_TERM,
D22,ADC3_D_N<5>,IOB,IO_L19N_26,,LVDS_25,26,,,,,,LOCATED,NO,DIFF_TERM,
D23,,,VCCO_26,,,26,,,,,any******,,,,
D24,ADC2_DCO_P,IOB,IO_L8P_SRCC_25,INPUT,LVDS_25,25,,,,NONE,,LOCATED,NO,DIFF_TERM,
D25,ADC2_D_P<7>,IOB,IO_L0P_25,INPUT,LVDS_25,25,,,,NONE,,LOCATED,NO,DIFF_TERM,
D26,ADC2_D_N<7>,IOB,IO_L0N_25,,LVDS_25,25,,,,,,LOCATED,NO,DIFF_TERM,
D27,ADC2_D_P<10>,IOB,IO_L4P_25,INPUT,LVDS_25,25,,,,NONE,,LOCATED,NO,DIFF_TERM,
D28,,,GND,,,,,,,,,,,,
D29,ADC2_D_N<16>,IOB,IO_L10N_MRCC_25,,LVDS_25,25,,,,,,LOCATED,NO,DIFF_TERM,
D30,ADC2_D_N<9>,IOB,IO_L17N_25,,LVDS_25,25,,,,,,LOCATED,NO,DIFF_TERM,
D31,ADC1_D_P<8>,IOB,IO_L15P_16,INPUT,LVDS_25,16,,,,NONE,,LOCATED,NO,DIFF_TERM,
D32,ADC1_D_N<8>,IOB,IO_L15N_16,,LVDS_25,16,,,,,,LOCATED,NO,DIFF_TERM,
D33,,,VCCO_16,,,16,,,,,any******,,,,
D34,ADC1_D_P<16>,IOB,IO_L8P_SRCC_16,INPUT,LVDS_25,16,,,,NONE,,LOCATED,NO,DIFF_TERM,
E1,,,GND,,,,,,,,,,,,
E2,,,GND,,,,,,,,,,,,
E3,,IPAD,MGTRXP1_116,UNUSED,,,,,,,,,,,
E4,,IPAD,MGTRXN1_116,UNUSED,,,,,,,,,,,
E5,,,GND,,,,,,,,,,,,
E6,,,MGTAVCC_N,,,,,,,,,,,,
E7,,,GND,,,,,,,,,,,,
E8,P1720_DE_H<3>,IOB,IO_L6P_A07_D23_34,OUTPUT,LVCMOS25*,34,12,SLOW,,,,LOCATED,NO,NONE,
E9,P1720_DE_H<2>,IOB,IO_L6N_A06_D22_34,OUTPUT,LVCMOS25*,34,12,SLOW,,,,LOCATED,NO,NONE,
E10,,,VCCO_34,,,34,,,,,2.50,,,,
E11,ADC5_D_N<2>,IOB,IO_L19N_GC_35,,LVDS_25,35,,,,,,LOCATED,NO,DIFF_TERM,
E12,ADC5_D_N<12>,IOB,IO_L17N_35,,LVDS_25,35,,,,,,LOCATED,NO,DIFF_TERM,
E13,ADC5_D_P<9>,IOB,IO_L15P_SM7P_35,INPUT,LVDS_25,35,,,,NONE,,LOCATED,NO,DIFF_TERM,
E14,ADC5_D_N<13>,IOB,IO_L5N_SM2N_35,,LVDS_25,35,,,,,,LOCATED,NO,DIFF_TERM,
E15,,,GND,,,,,,,,,,,,
E16,ADC4_D_P<0>,IOB,IO_L13P_36,INPUT,LVDS_25,36,,,,NONE,,LOCATED,NO,DIFF_TERM,
E17,ADC4_D_N<9>,IOB,IO_L0N_36,,LVDS_25,36,,,,,,LOCATED,NO,DIFF_TERM,
E18,ADC4_D_P<14>,IOB,IO_L1P_36,INPUT,LVDS_25,36,,,,NONE,,LOCATED,NO,DIFF_TERM,
E19,ADC3_D_P<6>,IOB,IO_L13P_26,INPUT,LVDS_25,26,,,,NONE,,LOCATED,NO,DIFF_TERM,
E20,,,VCCO_26,,,26,,,,,any******,,,,
E21,ADC3_D_N<4>,IOB,IO_L12N_VRP_26,,LVDS_25,26,,,,,,LOCATED,NO,DIFF_TERM,
E22,ADC3_D_P<15>,IOB,IO_L6P_26,INPUT,LVDS_25,26,,,,NONE,,LOCATED,NO,DIFF_TERM,
E23,ADC3_D_N<15>,IOB,IO_L6N_26,,LVDS_25,26,,,,,,LOCATED,NO,DIFF_TERM,
E24,ADC2_DCO_N,IOB,IO_L8N_SRCC_25,,LVDS_25,25,,,,,,LOCATED,NO,DIFF_TERM,
E25,,,GND,,,,,,,,,,,,
E26,ADC2_D_P<1>,IOB,IO_L2P_25,INPUT,LVDS_25,25,,,,NONE,,LOCATED,NO,DIFF_TERM,
E27,ADC2_D_N<10>,IOB,IO_L4N_VREF_25,,LVDS_25,25,,,,,,LOCATED,NO,DIFF_TERM,
E28,ADC2_D_N<15>,IOB,IO_L14N_VREF_25,,LVDS_25,25,,,,,,LOCATED,NO,DIFF_TERM,
E29,ADC2_D_P<8>,IOB,IO_L16P_VRN_25,INPUT,LVDS_25,25,,,,NONE,,LOCATED,NO,DIFF_TERM,
E30,,,VCCO_25,,,25,,,,,2.50,,,,
E31,ADC1_DCO_N,IOB,IO_L11N_SRCC_16,,LVDS_25,16,,,,,,LOCATED,NO,DIFF_TERM,
E32,ADC1_D_P<3>,IOB,IO_L2P_16,INPUT,LVDS_25,16,,,,NONE,,LOCATED,NO,DIFF_TERM,
E33,ADC1_D_N<3>,IOB,IO_L2N_16,,LVDS_25,16,,,,,,LOCATED,NO,DIFF_TERM,
E34,ADC1_D_P<11>,IOB,IO_L12P_VRN_16,INPUT,LVDS_25,16,,,,NONE,,LOCATED,NO,DIFF_TERM,
F1,PET_P<0>,OPAD,MGTTXP3_115,,,,,,,,,LOCATED,NO,,
F2,PET_N<0>,OPAD,MGTTXN3_115,,,,,,,,,LOCATED,NO,,
F3,,,GND,,,,,,,,,,,,
F4,,,GND,,,,,,,,,,,,
F5,,IPAD,MGTREFCLK1N_116,UNUSED,,,,,,,,,,,
F6,,IPAD,MGTREFCLK1P_116,UNUSED,,,,,,,,,,,
F7,,,GND,,,,,,,,,,,,
F8,,,CSI_B_0,,,,,,,,,,,,
F9,MLVDS_DOUT<0>,IOB,IO_L2P_A15_D31_34,OUTPUT,LVCMOS25*,34,12,SLOW,,,,LOCATED,NO,NONE,
F10,MLVDS_DOUT<1>,IOB,IO_L2N_A14_D30_34,OUTPUT,LVCMOS25*,34,12,SLOW,,,,LOCATED,NO,NONE,
F11,ADC5_D_N<7>,IOB,IO_L2N_SM0N_35,,LVDS_25,35,,,,,,LOCATED,NO,DIFF_TERM,
F12,,,GND,,,,,,,,,,,,
F13,ADC5_D_N<9>,IOB,IO_L15N_SM7N_35,,LVDS_25,35,,,,,,LOCATED,NO,DIFF_TERM,
F14,ADC5_D_P<13>,IOB,IO_L5P_SM2P_35,INPUT,LVDS_25,35,,,,NONE,,LOCATED,NO,DIFF_TERM,
F15,ADC4_D_N<6>,IOB,IO_L16N_36,,LVDS_25,36,,,,,,LOCATED,NO,DIFF_TERM,
F16,ADC4_D_P<3>,IOB,IO_L12P_VRN_36,INPUT,LVDS_25,36,,,,NONE,,LOCATED,NO,DIFF_TERM,
F17,,,VCCO_36,,,36,,,,,2.50,,,,
F18,ADC4_D_P<9>,IOB,IO_L0P_36,INPUT,LVDS_25,36,,,,NONE,,LOCATED,NO,DIFF_TERM,
F19,EXT_TRG_P<2>,IOB,IO_L8P_SRCC_26,INPUT,LVDS_25,26,,,,NONE,,LOCATED,NO,DIFF_TERM,
F20,EXT_TRG_N<2>,IOB,IO_L8N_SRCC_26,,LVDS_25,26,,,,,,LOCATED,NO,DIFF_TERM,
F21,ADC3_DCO_P,IOB,IO_L10P_MRCC_26,INPUT,LVDS_25,26,,,,NONE,,LOCATED,NO,DIFF_TERM,
F22,,,GND,,,,,,,,,,,,
F23,CLK_MUX2B_SEL<0>,IOB,IO_L3N_D12_24,OUTPUT,LVCMOS25*,24,12,SLOW,,,,LOCATED,NO,NONE,
F24,CLK_MUX2A_SEL<1>,IOB,IO_L3P_D13_24,OUTPUT,LVCMOS25*,24,12,SLOW,,,,LOCATED,NO,NONE,
F25,ADC2_D_P<3>,IOB,IO_L11P_SRCC_25,INPUT,LVDS_25,25,,,,NONE,,LOCATED,NO,DIFF_TERM,
F26,ADC2_D_N<1>,IOB,IO_L2N_25,,LVDS_25,25,,,,,,LOCATED,NO,DIFF_TERM,
F27,,,VCCO_25,,,25,,,,,2.50,,,,
F28,ADC2_D_P<15>,IOB,IO_L14P_25,INPUT,LVDS_25,25,,,,NONE,,LOCATED,NO,DIFF_TERM,
F29,ADC2_D_N<8>,IOB,IO_L16N_VRP_25,,LVDS_25,25,,,,,,LOCATED,NO,DIFF_TERM,
F30,ADC1_D_P<2>,IOB,IO_L3P_16,INPUT,LVDS_25,16,,,,NONE,,LOCATED,NO,DIFF_TERM,
F31,ADC1_DCO_P,IOB,IO_L11P_SRCC_16,INPUT,LVDS_25,16,,,,NONE,,LOCATED,NO,DIFF_TERM,
F32,,,GND,,,,,,,,,,,,
F33,,IOBM,IO_L10P_MRCC_16,UNUSED,,16,,,,,,,,,
F34,ADC1_D_N<11>,IOB,IO_L12N_VRP_16,,LVDS_25,16,,,,,,LOCATED,NO,DIFF_TERM,
G1,,,GND,,,,,,,,,,,,
G2,,,MGTAVTT_N,,,,,,,,,,,,
G3,,IPAD,MGTRXP0_116,UNUSED,,,,,,,,,,,
G4,,IPAD,MGTRXN0_116,UNUSED,,,,,,,,,,,
G5,,,GND,,,,,,,,,,,,
G6,,,MGTAVCC_N,,,,,,,,,,,,
G7,,,GND,,,,,,,,,,,,
G8,,,RDWR_B_0,,,,,,,,,,,,
G9,,,GND,,,,,,,,,,,,
G10,ADC5_D_N<1>,IOB,IO_L6N_SM3N_35,,LVDS_25,35,,,,,,LOCATED,NO,DIFF_TERM,
G11,ADC5_D_P<7>,IOB,IO_L2P_SM0P_35,INPUT,LVDS_25,35,,,,NONE,,LOCATED,NO,DIFF_TERM,
G12,ADC5_D_P<5>,IOB,IO_L4P_35,INPUT,LVDS_25,35,,,,NONE,,LOCATED,NO,DIFF_TERM,
G13,ADC5_D_P<6>,IOB,IO_L0P_35,INPUT,LVDS_25,35,,,,NONE,,LOCATED,NO,DIFF_TERM,
G14,,,VCCO_35,,,35,,,,,2.50,,,,
G15,ADC4_D_P<6>,IOB,IO_L16P_36,INPUT,LVDS_25,36,,,,NONE,,LOCATED,NO,DIFF_TERM,
G16,ADC4_D_N<3>,IOB,IO_L12N_VRP_36,,LVDS_25,36,,,,,,LOCATED,NO,DIFF_TERM,
G17,ADC4_D_N<12>,IOB,IO_L3N_36,,LVDS_25,36,,,,,,LOCATED,NO,DIFF_TERM,
G18,ADC4_DCO_P,IOB,IO_L8P_SRCC_36,INPUT,LVDS_25,36,,,,NONE,,LOCATED,NO,DIFF_TERM,
G19,,,GND,,,,,,,,,,,,
G20,ADC3_DCO_N,IOB,IO_L10N_MRCC_26,,LVDS_25,26,,,,,,LOCATED,NO,DIFF_TERM,
G21,ADC3_D_P<3>,IOB,IO_L2P_26,INPUT,LVDS_25,26,,,,NONE,,LOCATED,NO,DIFF_TERM,
G22,ADC3_D_N<3>,IOB,IO_L2N_26,,LVDS_25,26,,,,,,LOCATED,NO,DIFF_TERM,
G23,CLK_MUXAB_SEL<0>,IOB,IO_L5N_D8_24,OUTPUT,LVCMOS25*,24,12,SLOW,,,,LOCATED,NO,NONE,
G24,,,VCCO_24,,,24,,,,,2.50,,,,
G25,ADC2_D_N<3>,IOB,IO_L11N_SRCC_25,,LVDS_25,25,,,,,,LOCATED,NO,DIFF_TERM,
G26,ADC2_D_P<11>,IOB,IO_L6P_25,INPUT,LVDS_25,25,,,,NONE,,LOCATED,NO,DIFF_TERM,
G27,ADC2_D_N<11>,IOB,IO_L6N_25,,LVDS_25,25,,,,,,LOCATED,NO,DIFF_TERM,
G28,EXT_TRG_N<1>,IOB,IO_L12N_25,,LVDS_25,25,,,,,,LOCATED,NO,DIFF_TERM,
G29,,,GND,,,,,,,,,,,,
G30,ADC1_D_N<2>,IOB,IO_L3N_16,,LVDS_25,16,,,,,,LOCATED,NO,DIFF_TERM,
G31,ADC1_D_P<0>,IOB,IO_L5P_16,INPUT,LVDS_25,16,,,,NONE,,LOCATED,NO,DIFF_TERM,
G32,ADC1_D_P<5>,IOB,IO_L17P_16,INPUT,LVDS_25,16,,,,NONE,,LOCATED,NO,DIFF_TERM,
G33,,IOBS,IO_L10N_MRCC_16,UNUSED,,16,,,,,,,,,
G34,,,VCCO_16,,,16,,,,,any******,,,,
H1,PET_P<1>,OPAD,MGTTXP2_115,,,,,,,,,LOCATED,NO,,
H2,PET_N<1>,OPAD,MGTTXN2_115,,,,,,,,,LOCATED,NO,,
H3,,,MGTAVTT_N,,,,,,,,,,,,
H4,,,GND,,,,,,,,,,,,
H5,,IPAD,MGTREFCLK0N_116,UNUSED,,,,,,,,,,,
H6,,IPAD,MGTREFCLK0P_116,UNUSED,,,,,,,,,,,
H7,,,GND,,,,,,,,,,,,
H8,,,DIN_0,,,,,,,,,,,,
H9,MLVDS_DOUT<2>,IOB,IO_L0N_GC_34,OUTPUT,LVCMOS25*,34,12,SLOW,,,,LOCATED,NO,NONE,
H10,ADC5_D_P<1>,IOB,IO_L6P_SM3P_35,INPUT,LVDS_25,35,,,,NONE,,LOCATED,NO,DIFF_TERM,
H11,,,VCCO_35,,,35,,,,,2.50,,,,
H12,ADC5_D_P<0>,IOB,IO_L12P_SM5P_35,INPUT,LVDS_25,35,,,,NONE,,LOCATED,NO,DIFF_TERM,
H13,ADC5_D_N<5>,IOB,IO_L4N_VREF_35,,LVDS_25,35,,,,,,LOCATED,NO,DIFF_TERM,
H14,ADC5_D_N<6>,IOB,IO_L0N_35,,LVDS_25,35,,,,,,LOCATED,NO,DIFF_TERM,
H15,ADC4_D_P<5>,IOB,IO_L18P_36,INPUT,LVDS_25,36,,,,NONE,,LOCATED,NO,DIFF_TERM,
H16,,,GND,,,,,,,,,,,,
H17,ADC4_D_P<12>,IOB,IO_L3P_36,INPUT,LVDS_25,36,,,,NONE,,LOCATED,NO,DIFF_TERM,
H18,ADC4_DCO_N,IOB,IO_L8N_SRCC_36,,LVDS_25,36,,,,,,LOCATED,NO,DIFF_TERM,
H19,ADC3_D_P<16>,IOB,IO_L11P_SRCC_26,INPUT,LVDS_25,26,,,,NONE,,LOCATED,NO,DIFF_TERM,
H20,ADC3_D_N<16>,IOB,IO_L11N_SRCC_26,,LVDS_25,26,,,,,,LOCATED,NO,DIFF_TERM,
H21,,,VCCO_26,,,26,,,,,any******,,,,
H22,ADC3_D_P<8>,IOB,IO_L14P_26,INPUT,LVDS_25,26,,,,NONE,,LOCATED,NO,DIFF_TERM,
H23,CLK_MUX1B_SEL<0>,IOB,IO_L5P_D9_24,OUTPUT,LVCMOS25*,24,12,SLOW,,,,LOCATED,NO,NONE,
H24,Z3_TCLK_EN_L,IOB,IO_L7N_D4_24,TRISTATE,LVCMOS25*,24,12,SLOW,,,,LOCATED,NO,NONE,
H25,SI_SPI_SS_L,IOB,IO_L7P_D5_24,OUTPUT,LVCMOS25*,24,12,SLOW,,,,LOCATED,NO,NONE,
H26,,,GND,,,,,,,,,,,,
H27,EXT_TRG_P<1>,IOB,IO_L12P_25,INPUT,LVDS_25,25,,,,NONE,,LOCATED,NO,DIFF_TERM,
H28,DAC_CLK_P,IOBM,IO_L18P_GC_25,OUTPUT,LVDS_25,25,,,,,,LOCATED,YES,NONE,
H29,DAC_CLK_N,IOBS,IO_L18N_GC_25,OUTPUT,LVDS_25,25,,,,,,LOCATED,NO,NONE,
H30,ADC1_D_N<0>,IOB,IO_L5N_16,,LVDS_25,16,,,,,,LOCATED,NO,DIFF_TERM,
H31,,,VCCO_16,,,16,,,,,any******,,,,
H32,ADC1_D_N<5>,IOB,IO_L17N_16,,LVDS_25,16,,,,,,LOCATED,NO,DIFF_TERM,
H33,ADC1_D_N<10>,IOB,IO_L14N_VREF_16,,LVDS_25,16,,,,,,LOCATED,NO,DIFF_TERM,
H34,ADC1_D_P<10>,IOB,IO_L14P_16,INPUT,LVDS_25,16,,,,NONE,,LOCATED,NO,DIFF_TERM,
J1,,,GND,,,,,,,,,,,,
J2,,,GND,,,,,,,,,,,,
J3,PER_P<0>,IPAD,MGTRXP3_115,,,,,,,,,LOCATED,NO,,
J4,PER_N<0>,IPAD,MGTRXN3_115,,,,,,,,,LOCATED,NO,,
J5,,,GND,,,,,,,,,,,,
J6,,,MGTAVCC_N,,,,,,,,,,,,
J7,,,GND,,,,,,,,,,,,
J8,,,GND,,,,,,,,,,,,
J9,MLVDS_DOUT<3>,IOB,IO_L0P_GC_34,OUTPUT,LVCMOS25*,34,12,SLOW,,,,LOCATED,NO,NONE,
J10,ADC5_D_N<4>,IOB,IO_L14N_VREF_35,,LVDS_25,35,,,,,,LOCATED,NO,DIFF_TERM,
J11,ADC5_D_P<4>,IOB,IO_L14P_35,INPUT,LVDS_25,35,,,,NONE,,LOCATED,NO,DIFF_TERM,
J12,ADC5_D_N<0>,IOB,IO_L12N_SM5N_35,,LVDS_25,35,,,,,,LOCATED,NO,DIFF_TERM,
J13,,,GND,,,,,,,,,,,,
J14,ADC5_D_N<16>,IOB,IO_L8N_SRCC_35,,LVDS_25,35,,,,,,LOCATED,NO,DIFF_TERM,
J15,ADC4_D_N<5>,IOB,IO_L18N_36,,LVDS_25,36,,,,,,LOCATED,NO,DIFF_TERM,
J16,ADC4_D_N<8>,IOB,IO_L14N_VREF_36,,LVDS_25,36,,,,,,LOCATED,NO,DIFF_TERM,
J17,ADC4_D_P<8>,IOB,IO_L14P_36,INPUT,LVDS_25,36,,,,NONE,,LOCATED,NO,DIFF_TERM,
J18,,,VCCO_36,,,36,,,,,2.50,,,,
J19,ADC4_D_N<15>,IOB,IO_L6N_36,,LVDS_25,36,,,,,,LOCATED,NO,DIFF_TERM,
J20,ADC3_D_P<13>,IOB,IO_L4P_26,INPUT,LVDS_25,26,,,,NONE,,LOCATED,NO,DIFF_TERM,
J21,ADC3_D_N<13>,IOB,IO_L4N_VREF_26,,LVDS_25,26,,,,,,LOCATED,NO,DIFF_TERM,
J22,ADC3_D_N<8>,IOB,IO_L14N_VREF_26,,LVDS_25,26,,,,,,LOCATED,NO,DIFF_TERM,
J23,,,GND,,,,,,,,,,,,
J24,EXT_DO_N<1>,IOBS,IO_L9N_MRCC_24,OUTPUT,LVDS_25,24,,,,,,LOCATED,NO,NONE,
J25,EXT_DO_P<1>,IOBM,IO_L9P_MRCC_24,OUTPUT,LVDS_25,24,,,,,,LOCATED,NO,NONE,
J26,ADC1_D_P<6>,IOB,IO_L1P_16,INPUT,LVDS_25,16,,,,NONE,,LOCATED,NO,DIFF_TERM,
J27,ADC1_D_N<6>,IOB,IO_L1N_16,,LVDS_25,16,,,,,,LOCATED,NO,DIFF_TERM,
J28,,,VCCO_16,,,16,,,,,any******,,,,
J29,ADC1_D_N<12>,IOB,IO_L7N_16,,LVDS_25,16,,,,,,LOCATED,NO,DIFF_TERM,
J30,ADC1_D_P<7>,IOB,IO_L13P_16,INPUT,LVDS_25,16,,,,NONE,,LOCATED,NO,DIFF_TERM,
J31,ADC1_D_P<13>,IOB,IO_L19P_16,INPUT,LVDS_25,16,,,,NONE,,LOCATED,NO,DIFF_TERM,
J32,ADC1_D_N<13>,IOB,IO_L19N_16,,LVDS_25,16,,,,,,LOCATED,NO,DIFF_TERM,
J33,,,GND,,,,,,,,,,,,
J34,ADC1_D_N<15>,IOB,IO_L16N_16,,LVDS_25,16,,,,,,LOCATED,NO,DIFF_TERM,
K1,PET_P<2>,OPAD,MGTTXP1_115,,,,,,,,,LOCATED,NO,,
K2,PET_N<2>,OPAD,MGTTXN1_115,,,,,,,,,LOCATED,NO,,
K3,,,GND,,,,,,,,,,,,
K4,,,GND,,,,,,,,,,,,
K5,PER_P<1>,IPAD,MGTRXP2_115,,,,,,,,,LOCATED,NO,,
K6,PER_N<1>,IPAD,MGTRXN2_115,,,,,,,,,LOCATED,NO,,
K7,,,GND,,,,,,,,,,,,
K8,,,CCLK_0,,,,,,,,,,,,
K9,MLVDS_DOUT<4>,IOB,IO_L8N_SRCC_34,OUTPUT,LVCMOS25*,34,12,SLOW,,,,LOCATED,NO,NONE,
K10,,,GND,,,,,,,,,,,,
K11,ADC5_D_P<14>,IOB,IO_L16P_VRN_35,INPUT,LVDS_25,35,,,,NONE,,LOCATED,NO,DIFF_TERM,
K12,ADC5_D_N<15>,IOB,IO_L18N_GC_35,,LVDS_25,35,,,,,,LOCATED,NO,DIFF_TERM,
K13,ADC5_D_P<15>,IOB,IO_L18P_GC_35,INPUT,LVDS_25,35,,,,NONE,,LOCATED,NO,DIFF_TERM,
K14,ADC5_D_P<16>,IOB,IO_L8P_SRCC_35,INPUT,LVDS_25,35,,,,NONE,,LOCATED,NO,DIFF_TERM,
K15,,,VCCO_36,,,36,,,,,2.50,,,,
K16,ADC4_D_P<1>,IOB,IO_L9P_MRCC_36,INPUT,LVDS_25,36,,,,NONE,,LOCATED,NO,DIFF_TERM,
K17,ADC4_D_N<4>,IOB,IO_L2N_36,,LVDS_25,36,,,,,,LOCATED,NO,DIFF_TERM,
K18,ADC4_D_P<4>,IOB,IO_L2P_36,INPUT,LVDS_25,36,,,,NONE,,LOCATED,NO,DIFF_TERM,
K19,ADC4_D_P<15>,IOB,IO_L6P_36,INPUT,LVDS_25,36,,,,NONE,,LOCATED,NO,DIFF_TERM,
K20,,,GND,,,,,,,,,,,,
K21,ADC3_D_P<7>,IOB,IO_L16P_26,INPUT,LVDS_25,26,,,,NONE,,LOCATED,NO,DIFF_TERM,
K22,ADC3_D_N<7>,IOB,IO_L16N_26,,LVDS_25,26,,,,,,LOCATED,NO,DIFF_TERM,
K23,DAC_MUX_CLK_N,IOB,IO_L1N_GC_24,,LVPECL_25,24,,,,,,LOCATED,NO,,
K24,DAC_MUX_CLK_P,IOB,IO_L1P_GC_24,INPUT,LVPECL_25,24,,,,NONE,,LOCATED,NO,NONE,
K25,,,VCCO_16,,,16,,,,,any******,,,,
K26,DIV0_CLK05_P,IOB,IO_L9P_MRCC_16,INPUT,LVDS_25,16,,,,NONE,,LOCATED,NO,DIFF_TERM,
K27,DIV0_CLK05_N,IOB,IO_L9N_MRCC_16,,LVDS_25,16,,,,,,LOCATED,NO,DIFF_TERM,
K28,ADC1_D_P<12>,IOB,IO_L7P_16,INPUT,LVDS_25,16,,,,NONE,,LOCATED,NO,DIFF_TERM,
K29,ADC1_D_N<7>,IOB,IO_L13N_16,,LVDS_25,16,,,,,,LOCATED,NO,DIFF_TERM,
K30,,,GND,,,,,,,,,,,,
K31,DAC_SELIQ_N,IOBS,IO_L2N_SM8N_15,OUTPUT,LVDS_25,15,,,,,,LOCATED,NO,NONE,
K32,DAC_SELIQ_P,IOBM,IO_L2P_SM8P_15,OUTPUT,LVDS_25,15,,,,,,LOCATED,YES,NONE,
K33,ADC1_D_P<15>,IOB,IO_L16P_16,INPUT,LVDS_25,16,,,,NONE,,LOCATED,NO,DIFF_TERM,
K34,DAC_D_P<15>,IOBM,IO_L16P_VRN_15,OUTPUT,LVDS_25,15,,,,,,LOCATED,YES,NONE,
L1,,,GND,,,,,,,,,,,,
L2,,,MGTAVTT_N,,,,,,,,,,,,
L3,PER_P<2>,IPAD,MGTRXP1_115,,,,,,,,,LOCATED,NO,,
L4,PER_N<2>,IPAD,MGTRXN1_115,,,,,,,,,LOCATED,NO,,
L5,,,GND,,,,,,,,,,,,
L6,,,MGTAVCC_N,,,,,,,,,,,,
L7,,,GND,,,,,,,,,,,,
L8,,,PROGRAM_B_0,,,,,,,,,,,,
L9,MLVDS_DOUT<5>,IOB,IO_L8P_SRCC_34,OUTPUT,LVCMOS25*,34,12,SLOW,,,,LOCATED,NO,NONE,
L10,MLVDS_DOUT<6>,IOB,IO_L9P_MRCC_34,OUTPUT,LVCMOS25*,34,12,SLOW,,,,LOCATED,NO,NONE,
L11,ADC5_D_N<14>,IOB,IO_L16N_VRP_35,,LVDS_25,35,,,,,,LOCATED,NO,DIFF_TERM,
L12,,,VCCO_35,,,35,,,,,2.50,,,,
L13,RTM_D_P<6>,IOBM,IO_L9P_MRCC_35,TRISTATE,LVDS_25,35,,,,,,LOCATED,NO,NONE,
L14,ADC4_D_N<11>,IOB,IO_L10N_MRCC_36,,LVDS_25,36,,,,,,LOCATED,NO,DIFF_TERM,
L15,ADC4_D_P<11>,IOB,IO_L10P_MRCC_36,INPUT,LVDS_25,36,,,,NONE,,LOCATED,NO,DIFF_TERM,
L16,ADC4_D_N<1>,IOB,IO_L9N_MRCC_36,,LVDS_25,36,,,,,,LOCATED,NO,DIFF_TERM,
L17,,,GND,,,,,,,,,,,,
L18,EXT_TRG_N<4>,IOB,IO_L4N_VREF_36,,LVDS_25,36,,,,,,LOCATED,NO,DIFF_TERM,
L19,EXT_TRG_P<4>,IOB,IO_L4P_36,INPUT,LVDS_25,36,,,,NONE,,LOCATED,NO,DIFF_TERM,
L20,ADC3_D_P<10>,IOB,IO_L18P_26,INPUT,LVDS_25,26,,,,NONE,,LOCATED,NO,DIFF_TERM,
L21,ADC3_D_N<10>,IOB,IO_L18N_26,,LVDS_25,26,,,,,,LOCATED,NO,DIFF_TERM,
L22,,,VCCO_24,,,24,,,,,2.50,,,,
L23,SYS_CLK_P,IOB,IO_L0P_GC_24,INPUT,LVDS_25,24,,,,NONE,,LOCATED,NO,NONE,
L24,CLK_MUX2A_SEL<0>,IOB,IO_L2N_D14_24,OUTPUT,LVCMOS25*,24,12,SLOW,,,,LOCATED,NO,NONE,
L25,ADC1_D_P<1>,IOB,IO_L18P_16,INPUT,LVDS_25,16,,,,NONE,,LOCATED,NO,DIFF_TERM,
L26,ADC1_D_N<1>,IOB,IO_L18N_16,,LVDS_25,16,,,,,,LOCATED,NO,DIFF_TERM,
L27,,,GND,,,,,,,,,,,,
L28,DAC_D_P<14>,IOBM,IO_L7P_SM12P_15,OUTPUT,LVDS_25,15,,,,,,LOCATED,YES,NONE,
L29,DAC_D_P<13>,IOBM,IO_L11P_SRCC_15,OUTPUT,LVDS_25,15,,,,,,LOCATED,YES,NONE,
L30,DAC_D_N<13>,IOBS,IO_L11N_SRCC_15,OUTPUT,LVDS_25,15,,,,,,LOCATED,NO,NONE,
L31,DAC_D_N<10>,IOBS,IO_L0N_15,OUTPUT,LVDS_25,15,,,,,,LOCATED,NO,NONE,
L32,,,VCCO_15,,,15,,,,,2.50,,,,
L33,DAC_D_P<11>,IOBM,IO_L6P_SM11P_15,OUTPUT,LVDS_25,15,,,,,,LOCATED,YES,NONE,
L34,DAC_D_N<15>,IOBS,IO_L16N_VRP_15,OUTPUT,LVDS_25,15,,,,,,LOCATED,NO,NONE,
M1,PET_P<3>,OPAD,MGTTXP0_115,,,,,,,,,LOCATED,NO,,
M2,PET_N<3>,OPAD,MGTTXN0_115,,,,,,,,,LOCATED,NO,,
M3,,,MGTAVTT_N,,,,,,,,,,,,
M4,,,GND,,,,,,,,,,,,
M5,,IPAD,MGTREFCLK1N_115,UNUSED,,,,,,,,,,,
M6,,IPAD,MGTREFCLK1P_115,UNUSED,,,,,,,,,,,
M7,,,GND,,,,,,,,,,,,
M8,,,HSWAPEN_0,,,,,,,,,,,,
M9,,,VCCO_34,,,34,,,,,2.50,,,,
M10,MLVDS_DOUT<7>,IOB,IO_L9N_MRCC_34,OUTPUT,LVCMOS25*,34,12,SLOW,,,,LOCATED,NO,NONE,
M11,RTM_D_N<4>,IOB,IO_L10N_MRCC_35,,LVDS_25,35,,,,,,LOCATED,NO,DIFF_TERM,
M12,RTM_D_P<4>,IOB,IO_L10P_MRCC_35,INPUT,LVDS_25,35,,,,NONE,,LOCATED,NO,DIFF_TERM,
M13,RTM_D_N<6>,IOBS,IO_L9N_MRCC_35,TRISTATE,LVDS_25,35,,,,,,LOCATED,NO,NONE,
M14,,,GND,,,,,,,,,,,,
M15,ADC4_D_N<2>,IOB,IO_L17N_36,,LVDS_25,36,,,,,,LOCATED,NO,DIFF_TERM,
M16,ADC4_D_P<2>,IOB,IO_L17P_36,INPUT,LVDS_25,36,,,,NONE,,LOCATED,NO,DIFF_TERM,
M17,CLK_DIV_SPI_CS_L<0>,IOB,IO_L7N_36,OUTPUT,LVCMOS25*,36,12,SLOW,,,,LOCATED,NO,NONE,
M18,CLK_DIV_SPI_CS_L<1>,IOB,IO_L7P_36,OUTPUT,LVCMOS25*,36,12,SLOW,,,,LOCATED,NO,NONE,
M19,,,VCCINT,,,,,,,,1.0,,,,
M20,,,GND,,,,,,,,,,,,
M21,,,VCCINT,,,,,,,,1.0,,,,
M22,SYS_CLK_N,IOB,IO_L0N_GC_24,,LVDS_25,24,,,,,,LOCATED,NO,,
M23,CLK_DIV_SPI_DI,IOB,IO_L2P_D15_24,OUTPUT,LVCMOS25*,24,12,SLOW,,,,LOCATED,NO,NONE,
M24,,,GND,,,,,,,,,,,,
M25,SI_LOL,IOB,IO_L1N_15,INPUT,LVCMOS25*,15,,,,NONE,,LOCATED,NO,NONE,
M26,DAC_D_P<8>,IOBM,IO_L3P_SM9P_15,OUTPUT,LVDS_25,15,,,,,,LOCATED,YES,NONE,
M27,DAC_D_N<8>,IOBS,IO_L3N_SM9N_15,OUTPUT,LVDS_25,15,,,,,,LOCATED,NO,NONE,
M28,DAC_D_N<14>,IOBS,IO_L7N_SM12N_15,OUTPUT,LVDS_25,15,,,,,,LOCATED,NO,NONE,
M29,,,VCCO_15,,,15,,,,,2.50,,,,
M30,DAC_D_P<9>,IOBM,IO_L17P_15,OUTPUT,LVDS_25,15,,,,,,LOCATED,YES,NONE,
M31,DAC_D_P<10>,IOBM,IO_L0P_15,OUTPUT,LVDS_25,15,,,,,,LOCATED,YES,NONE,
M32,DAC_D_N<11>,IOBS,IO_L6N_SM11N_15,OUTPUT,LVDS_25,15,,,,,,LOCATED,NO,NONE,
M33,DAC_D_N<7>,IOBS,IO_L10N_MRCC_15,OUTPUT,LVDS_25,15,,,,,,LOCATED,NO,NONE,
M34,,,GND,,,,,,,,,,,,
N1,,,GND,,,,,,,,,,,,
N2,,,GND,,,,,,,,,,,,
N3,PER_P<3>,IPAD,MGTRXP0_115,,,,,,,,,LOCATED,NO,,
N4,PER_N<3>,IPAD,MGTRXN0_115,,,,,,,,,LOCATED,NO,,
N5,,,GND,,,,,,,,,,,,
N6,,,MGTAVCC_N,,,,,,,,,,,,
N7,,,GND,,,,,,,,,,,,
N8,,,VBATT_0,,,,,,,,,,,,
N9,,,GND,,,,,,,,,,,,
N10,,,VCCAUX,,,,,,,,2.5,,,,
N11,,,GND,,,,,,,,,,,,
N12,,,VCCINT,,,,,,,,1.0,,,,
N13,,,GND,,,,,,,,,,,,
N14,,,VCCINT,,,,,,,,1.0,,,,
N15,,,GND,,,,,,,,,,,,
N16,,,VCCINT,,,,,,,,1.0,,,,
N17,,,GND,,,,,,,,,,,,
N18,,,VCCINT,,,,,,,,1.0,,,,
N19,,,GND,,,,,,,,,,,,
N20,,,VCCINT,,,,,,,,1.0,,,,
N21,,,GND,,,,,,,,,,,,
N22,,,VCCAUX,,,,,,,,2.5,,,,
N23,EXT_DO_P<2>,IOBM,IO_L4P_D11_24,OUTPUT,LVDS_25,24,,,,,,LOCATED,NO,NONE,
N24,EXT_DO_N<2>,IOBS,IO_L4N_VREF_D10_24,OUTPUT,LVDS_25,24,,,,,,LOCATED,NO,NONE,
N25,SI_SPI_DIN,IOB,IO_L1P_15,OUTPUT,LVCMOS25*,15,12,SLOW,,,,LOCATED,NO,NONE,
N26,,,VCCO_15,,,15,,,,,2.50,,,,
N27,DAC_D_P<12>,IOBM,IO_L5P_SM10P_15,OUTPUT,LVDS_25,15,,,,,,LOCATED,YES,NONE,
N28,DAC_D_P<4>,IOBM,IO_L9P_MRCC_15,OUTPUT,LVDS_25,15,,,,,,LOCATED,YES,NONE,
N29,DAC_D_N<4>,IOBS,IO_L9N_MRCC_15,OUTPUT,LVDS_25,15,,,,,,LOCATED,NO,NONE,
N30,DAC_D_N<9>,IOBS,IO_L17N_15,OUTPUT,LVDS_25,15,,,,,,LOCATED,NO,NONE,
N31,,,GND,,,,,,,,,,,,
N32,DAC_D_P<5>,IOBM,IO_L8P_SRCC_15,OUTPUT,LVDS_25,15,,,,,,LOCATED,YES,NONE,
N33,DAC_D_P<7>,IOBM,IO_L10P_MRCC_15,OUTPUT,LVDS_25,15,,,,,,LOCATED,YES,NONE,
N34,DAC_D_P<6>,IOBM,IO_L18P_15,OUTPUT,LVDS_25,15,,,,,,LOCATED,YES,NONE,
P1,P2PT_P<0>,OPAD,MGTTXP3_114,,,,,,,,,LOCATED,NO,,
P2,P2PT_N<0>,OPAD,MGTTXN3_114,,,,,,,,,LOCATED,NO,,
P3,,,GND,,,,,,,,,,,,
P4,,,GND,,,,,,,,,,,,
P5,PCIE_REFCLK_MGT_N,IPAD,MGTREFCLK0N_115,,,,,,,,,LOCATED,NO,,
P6,PCIE_REFCLK_MGT_P,IPAD,MGTREFCLK0P_115,,,,,,,,,LOCATED,NO,,
P7,,,GND,,,,,,,,,,,,
P8,,,INIT_B_0,,,,,,,,,,,,
P9,,,VCCAUX,,,,,,,,2.5,,,,
P10,,,GND,,,,,,,,,,,,
P11,,,VCCINT,,,,,,,,1.0,,,,
P12,,,GND,,,,,,,,,,,,
P13,,,VCCINT,,,,,,,,1.0,,,,
P14,,,GND,,,,,,,,,,,,
P15,,,VCCINT,,,,,,,,1.0,,,,
P16,,,GND,,,,,,,,,,,,
P17,,,VCCINT,,,,,,,,1.0,,,,
P18,,,GND,,,,,,,,,,,,
P19,,,VCCINT,,,,,,,,1.0,,,,
P20,,,GND,,,,,,,,,,,,
P21,,,VCCINT,,,,,,,,1.0,,,,
P22,,,GND,,,,,,,,,,,,
P23,,,VCCAUX,,,,,,,,2.5,,,,
P24,EXT_DO_N<4>,IOBS,IO_L6N_D6_24,OUTPUT,LVDS_25,24,,,,,,LOCATED,NO,NONE,
P25,SI_INT_C1B,IOB,IO_L12P_SM13P_15,INPUT,LVCMOS25*,15,,,,NONE,,LOCATED,NO,NONE,
P26,SI_RST_L,IOB,IO_L12N_SM13N_15,OUTPUT,LVCMOS25*,15,12,SLOW,,,,LOCATED,NO,NONE,
P27,DAC_D_N<12>,IOBS,IO_L5N_SM10N_15,OUTPUT,LVDS_25,15,,,,,,LOCATED,NO,NONE,
P28,,,GND,,,,,,,,,,,,
P29,DAC_D_P<2>,IOBM,IO_L19P_15,OUTPUT,LVDS_25,15,,,,,,LOCATED,YES,NONE,
P30,DAC_D_N<3>,IOBS,IO_L4N_VREF_15,OUTPUT,LVDS_25,15,,,,,,LOCATED,NO,NONE,
P31,DAC_D_P<3>,IOBM,IO_L4P_15,OUTPUT,LVDS_25,15,,,,,,LOCATED,YES,NONE,
P32,DAC_D_N<5>,IOBS,IO_L8N_SRCC_15,OUTPUT,LVDS_25,15,,,,,,LOCATED,NO,NONE,
P33,,,VCCO_15,,,15,,,,,2.50,,,,
P34,DAC_D_N<6>,IOBS,IO_L18N_15,OUTPUT,LVDS_25,15,,,,,,LOCATED,NO,NONE,
R1,,,GND,,,,,,,,,,,,
R2,,,MGTAVTT_S,,,,,,,,,,,,
R3,P2PR_P<0>,IPAD,MGTRXP3_114,,,,,,,,,LOCATED,NO,,
R4,P2PR_N<0>,IPAD,MGTRXN3_114,,,,,,,,,LOCATED,NO,,
R5,,,GND,,,,,,,,,,,,
R6,,,MGTAVCC_S,,,,,,,,,,,,
R7,,,GND,,,,,,,,,,,,
R8,,,DONE_0,,,,,,,,,,,,
R9,,,GND,,,,,,,,,,,,
R10,,,VCCINT,,,,,,,,1.0,,,,
R11,,,GND,,,,,,,,,,,,
R12,,,VCCINT,,,,,,,,1.0,,,,
R13,,,GND,,,,,,,,,,,,
R14,,,VCCINT,,,,,,,,1.0,,,,
R15,,,GND,,,,,,,,,,,,
R16,,,VCCINT,,,,,,,,1.0,,,,
R17,,,GND,,,,,,,,,,,,
R18,,,VCCINT,,,,,,,,1.0,,,,
R19,,,GND,,,,,,,,,,,,
R20,,,VCCINT,,,,,,,,1.0,,,,
R21,,,GND,,,,,,,,,,,,
R22,,,VCCAUX,,,,,,,,2.5,,,,
R23,,,GND,,,,,,,,,,,,
R24,EXT_DO_P<4>,IOBM,IO_L6P_D7_24,OUTPUT,LVDS_25,24,,,,,,LOCATED,NO,NONE,
R25,,,GND,,,,,,,,,,,,
R26,CLK_MUXAB_SEL<1>,IOB,IO_L15P_SM15P_15,OUTPUT,LVCMOS25*,15,12,SLOW,,,,LOCATED,NO,NONE,
R27,DAC_D_N<0>,IOBS,IO_L13N_SM14N_15,OUTPUT,LVDS_25,15,,,,,,LOCATED,NO,NONE,
R28,DAC_D_P<0>,IOBM,IO_L13P_SM14P_15,OUTPUT,LVDS_25,15,,,,,,LOCATED,YES,NONE,
R29,DAC_D_N<2>,IOBS,IO_L19N_15,OUTPUT,LVDS_25,15,,,,,,LOCATED,NO,NONE,
R30,,,VCCO_15,,,15,,,,,2.50,,,,
R31,DAC_D_P<1>,IOBM,IO_L14P_15,OUTPUT,LVDS_25,15,,,,,,LOCATED,YES,NONE,
R32,DAC_D_N<1>,IOBS,IO_L14N_VREF_15,OUTPUT,LVDS_25,15,,,,,,LOCATED,NO,NONE,
R33,,IOBM,IO_L2P_14,UNUSED,,14,,,,,,,,,
R34,MUX_DAC_SEL1,IOB,IO_L2N_14,OUTPUT,LVCMOS25*,14,12,SLOW,,,,LOCATED,NO,NONE,
T1,P2PT_P<1>,OPAD,MGTTXP2_114,,,,,,,,,LOCATED,NO,,
T2,P2PT_N<1>,OPAD,MGTTXN2_114,,,,,,,,,LOCATED,NO,,
T3,,,MGTAVTT_S,,,,,,,,,,,,
T4,,,GND,,,,,,,,,,,,
T5,,IPAD,MGTREFCLK1N_114,UNUSED,,,,,,,,,,,
T6,,IPAD,MGTREFCLK1P_114,UNUSED,,,,,,,,,,,
T7,,,GND,,,,,,,,,,,,
T8,,,GND,,,,,,,,,,,,
T9,,,VCCAUX,,,,,,,,2.5,,,,
T10,,,GND,,,,,,,,,,,,
T11,,,VCCINT,,,,,,,,1.0,,,,
T12,,,GND,,,,,,,,,,,,
T13,,,VCCINT,,,,,,,,1.0,,,,
T14,,,GND,,,,,,,,,,,,
T15,,,VCCINT,,,,,,,,1.0,,,,
T16,,,GND,,,,,,,,,,,,
T17,,,AVSS_0,,,,,,,,,,,,
T18,,,AVDD_0,,,,,,,,,,,,
T19,,,VCCINT,,,,,,,,1.0,,,,
T20,,,GND,,,,,,,,,,,,
T21,,,VCCINT,,,,,,,,1.0,,,,
T22,,,GND,,,,,,,,,,,,
T23,EXT_DO_N<3>,IOBS,IO_L8N_SRCC_24,OUTPUT,LVDS_25,24,,,,,,LOCATED,NO,NONE,
T24,EXT_DO_P<3>,IOBM,IO_L8P_SRCC_24,OUTPUT,LVDS_25,24,,,,,,LOCATED,NO,NONE,
T25,CLK_MUX1A_SEL<1>,IOB,IO_L0N_14,OUTPUT,LVCMOS25*,14,12,SLOW,,,,LOCATED,NO,NONE,
T26,CLK_MUX2B_SEL<1>,IOB,IO_L15N_SM15N_15,OUTPUT,LVCMOS25*,15,12,SLOW,,,,LOCATED,NO,NONE,
T27,,,VCCO_14,,,14,,,,,2.50,,,,
T28,SI_SPI_DOUT,IOB,IO_L1P_14,INPUT,LVCMOS25*,14,,,,NONE,,LOCATED,NO,NONE,
T29,SI_SPI_SCLK,IOB,IO_L1N_14,OUTPUT,LVCMOS25*,14,12,SLOW,,,,LOCATED,NO,NONE,
T30,Z3_ILOCK_EN_L,IOB,IO_L3P_14,TRISTATE,LVCMOS25*,14,12,SLOW,,,,LOCATED,NO,NONE,
T31,,IOBS,IO_L3N_14,UNUSED,,14,,,,,,,,,
T32,,,GND,,,,,,,,,,,,
T33,,IOBM,IO_L4P_14,UNUSED,,14,,,,,,,,,
T34,MUX_DAC_SEL0,IOB,IO_L4N_VREF_14,OUTPUT,LVCMOS25*,14,12,SLOW,,,,LOCATED,NO,NONE,
U1,,,GND,,,,,,,,,,,,
U2,,,GND,,,,,,,,,,,,
U3,P2PR_P<1>,IPAD,MGTRXP2_114,,,,,,,,,LOCATED,NO,,
U4,P2PR_N<1>,IPAD,MGTRXN2_114,,,,,,,,,LOCATED,NO,,
U5,,,GND,,,,,,,,,,,,
U6,,,MGTAVCC_S,,,,,,,,,,,,
U7,,,GND,,,,,,,,,,,,
U8,,,M0_0,,,,,,,,,,,,
U9,,,GND,,,,,,,,,,,,
U10,,,VCCINT,,,,,,,,1.0,,,,
U11,,,GND,,,,,,,,,,,,
U12,,,VCCINT,,,,,,,,1.0,,,,
U13,,,GND,,,,,,,,,,,,
U14,,,VCCINT,,,,,,,,1.0,,,,
U15,,,GND,,,,,,,,,,,,
U16,,,VCCINT,,,,,,,,1.0,,,,
U17,,,VREFN_0,,,,,,,,,,,,
U18,,IPAD,VP_0,UNUSED,,0,,,,,,,,,
U19,,,GND,,,,,,,,,,,,
U20,,,VCCINT,,,,,,,,1.0,,,,
U21,,,GND,,,,,,,,,,,,
U22,,,VCCAUX,,,,,,,,2.5,,,,
U23,CLK_DIV_FUNCTION,IOB,IO_L10P_MRCC_24,OUTPUT,LVCMOS25*,24,12,SLOW,,,,LOCATED,NO,NONE,
U24,,,VCCO_24,,,24,,,,,2.50,,,,
U25,LED_SERIAL_DATA,IOB,IO_L0P_14,OUTPUT,LVCMOS25*,14,12,SLOW,,,,LOCATED,NO,NONE,
U26,CLK_MUX1B_SEL<1>,IOB,IO_L5P_14,OUTPUT,LVCMOS25*,14,12,SLOW,,,,LOCATED,NO,NONE,
U27,CLK_MUX1A_SEL<0>,IOB,IO_L5N_14,OUTPUT,LVCMOS25*,14,12,SLOW,,,,LOCATED,NO,NONE,
U28,CLK_DIV_SPI_DO,IOB,IO_L7P_14,INPUT,LVCMOS25*,14,,,,NONE,,LOCATED,NO,NONE,
U29,,,GND,,,,,,,,,,,,
U30,,IOBS,IO_L8N_SRCC_14,UNUSED,,14,,,,,,,,,
U31,,IOBM,IO_L8P_SRCC_14,UNUSED,,14,,,,,,,,,
U32,,IOBS,IO_L6N_14,UNUSED,,14,,,,,,,,,
U33,,IOBM,IO_L6P_14,UNUSED,,14,,,,,,,,,
U34,,,VCCO_14,,,14,,,,,2.50,,,,
V1,P2PT_P<2>,OPAD,MGTTXP1_114,,,,,,,,,LOCATED,NO,,
V2,P2PT_N<2>,OPAD,MGTTXN1_114,,,,,,,,,LOCATED,NO,,
V3,,,GND,,,,,,,,,,,,
V4,,,GND,,,,,,,,,,,,
V5,MGTCLK0_114_N,IPAD,MGTREFCLK0N_114,,,,,,,,,LOCATED,NO,,
V6,MGTCLK0_114_P,IPAD,MGTREFCLK0P_114,,,,,,,,,LOCATED,NO,,
V7,,,GND,,,,,,,,,,,,
V8,,,M2_0,,,,,,,,,,,,
V9,,,VCCAUX,,,,,,,,2.5,,,,
V10,,,GND,,,,,,,,,,,,
V11,,,VCCINT,,,,,,,,1.0,,,,
V12,,,GND,,,,,,,,,,,,
V13,,,VCCINT,,,,,,,,1.0,,,,
V14,,,GND,,,,,,,,,,,,
V15,,,VCCINT,,,,,,,,1.0,,,,
V16,,,GND,,,,,,,,,,,,
V17,,IPAD,VN_0,UNUSED,,0,,,,,,,,,
V18,,,VREFP_0,,,,,,,,,,,,
V19,,,VCCINT,,,,,,,,1.0,,,,
V20,,,GND,,,,,,,,,,,,
V21,,,VCCINT,,,,,,,,1.0,,,,
V22,,,GND,,,,,,,,,,,,
V23,CLK_DIV_SPI_SCLK,IOB,IO_L10N_MRCC_24,OUTPUT,LVCMOS25*,24,12,SLOW,,,,LOCATED,NO,NONE,
V24,CLK_DIV_STATUS<0>,IOB,IO_L12P_D3_24,INPUT,LVCMOS25*,24,,,,NONE,,LOCATED,NO,NONE,
V25,,IOBS,IO_L18N_14,UNUSED,,14,,,,,,,,,
V26,,,GND,,,,,,,,,,,,
V27,,IOBS,IO_L11N_SRCC_14,UNUSED,,14,,,,,,,,,
V28,,IOBM,IO_L11P_SRCC_14,UNUSED,,14,,,,,,,,,
V29,,IOBS,IO_L7N_14,UNUSED,,14,,,,,,,,,
V30,,IOBM,IO_L9P_MRCC_14,UNUSED,,14,,,,,,,,,
V31,,,VCCO_14,,,14,,,,,2.50,,,,
V32,,IOBM,IO_L12P_VRN_14,UNUSED,,14,,,,,,,,,
V33,DAC_TORB,IOB,IO_L12N_VRP_14,OUTPUT,LVCMOS25*,14,12,SLOW,,,,LOCATED,NO,NONE,
V34,MGT_CK_INT,IOB,IO_L10P_MRCC_14,INPUT,LVCMOS25*,14,,,,NONE,,LOCATED,NO,NONE,
W1,,,GND,,,,,,,,,,,,
W2,,,MGTAVTT_S,,,,,,,,,,,,
W3,P2PR_P<2>,IPAD,MGTRXP1_114,,,,,,,,,LOCATED,NO,,
W4,P2PR_N<2>,IPAD,MGTRXN1_114,,,,,,,,,LOCATED,NO,,
W5,,,GND,,,,,,,,,,,,
W6,,,MGTAVCC_S,,,,,,,,,,,,
W7,,,GND,,,,,,,,,,,,
W8,,,M1_0,,,,,,,,,,,,
W9,,,GND,,,,,,,,,,,,
W10,,,VCCAUX,,,,,,,,2.5,,,,
W11,,,GND,,,,,,,,,,,,
W12,,,VCCINT,,,,,,,,1.0,,,,
W13,,,GND,,,,,,,,,,,,
W14,,,VCCINT,,,,,,,,1.0,,,,
W15,,,GND,,,,,,,,,,,,
W16,,,VCCINT,,,,,,,,1.0,,,,
W17,,,DXN_0,,,,,,,,,,,,
W18,,,DXP_0,,,,,,,,,,,,
W19,,,GND,,,,,,,,,,,,
W20,,,VCCINT,,,,,,,,1.0,,,,
W21,,,GND,,,,,,,,,,,,
W22,,,VCCAUX,,,,,,,,2.5,,,,
W23,,,GND,,,,,,,,,,,,
W24,,IOBS,IO_L12N_D2_FS2_24,UNUSED,,24,,,,,,,,,
W25,,IOBM,IO_L18P_14,UNUSED,,14,,,,,,,,,
W26,CLK_DIV_STATUS<1>,IOB,IO_L19N_14,INPUT,LVCMOS25*,14,,,,NONE,,LOCATED,NO,NONE,
W27,,IOBM,IO_L19P_14,UNUSED,,14,,,,,,,,,
W28,,,VCCO_14,,,14,,,,,2.50,,,,
W29,,IOBM,IO_L15P_14,UNUSED,,14,,,,,,,,,
W30,,IOBS,IO_L9N_MRCC_14,UNUSED,,14,,,,,,,,,
W31,,IOBM,IO_L16P_14,UNUSED,,14,,,,,,,,,
W32,,IOBS,IO_L16N_14,UNUSED,,14,,,,,,,,,
W33,,,GND,,,,,,,,,,,,
W34,MGT_CK_SCL,IOB,IO_L10N_MRCC_14,TRISTATE,LVCMOS25*,14,12,SLOW,,,,LOCATED,NO,NONE,
Y1,P2PT_P<3>,OPAD,MGTTXP0_114,,,,,,,,,LOCATED,NO,,
Y2,P2PT_N<3>,OPAD,MGTTXN0_114,,,,,,,,,LOCATED,NO,,
Y3,,,MGTAVTT_S,,,,,,,,,,,,
Y4,,,GND,,,,,,,,,,,,
Y5,,,GND,,,,,,,,,,,,
Y6,,,GND,,,,,,,,,,,,
Y7,,,GND,,,,,,,,,,,,
Y8,,,VFS_0,,,,,,,,,,,,
Y9,,,VCCO_0,,,0,,,,,any******,,,,
Y10,,,GND,,,,,,,,,,,,
Y11,,,VCCINT,,,,,,,,1.0,,,,
Y12,,,GND,,,,,,,,,,,,
Y13,,,VCCINT,,,,,,,,1.0,,,,
Y14,,,GND,,,,,,,,,,,,
Y15,,,VCCINT,,,,,,,,1.0,,,,
Y16,,,GND,,,,,,,,,,,,
Y17,,,VCCINT,,,,,,,,1.0,,,,
Y18,,,GND,,,,,,,,,,,,
Y19,,,VCCINT,,,,,,,,1.0,,,,
Y20,,,GND,,,,,,,,,,,,
Y21,,,VCCINT,,,,,,,,1.0,,,,
Y22,,,GND,,,,,,,,,,,,
Y23,,,VCCAUX,,,,,,,,2.5,,,,
Y24,FLASH_CS_L,IOB,IO_L14P_FCS_B_24,OUTPUT,LVCMOS25*,24,12,SLOW,,,,LOCATED,NO,NONE,
Y25,,,VCCO_24,,,24,,,,,2.50,,,,
Y26,ADC_SPI_DIO,IOB,IO_L6N_13,BIDIR,LVCMOS18,13,12,SLOW,,NONE,,LOCATED,NO,NONE,
Y27,,IOBS,IO_L17N_14,UNUSED,,14,,,,,,,,,
Y28,,IOBM,IO_L17P_14,UNUSED,,14,,,,,,,,,
Y29,,IOBS,IO_L15N_14,UNUSED,,14,,,,,,,,,
Y30,,,GND,,,,,,,,,,,,
Y31,,IOBS,IO_L13N_14,UNUSED,,14,,,,,,,,,
Y32,,IOBM,IO_L13P_14,UNUSED,,14,,,,,,,,,
Y33,DAC_PD_H,IOB,IO_L14P_14,OUTPUT,LVCMOS25*,14,12,SLOW,,,,LOCATED,YES,NONE,
Y34,MGT_CK_SDA,IOB,IO_L14N_VREF_14,BIDIR,LVCMOS25*,14,12,SLOW,,NONE,,LOCATED,NO,NONE,

# -----,-----,-----,-----,-----,-----,-----,-----,-----,-----,-----,-----,-----,-----,-----,
# 
#* Default value.
#** This default Pullup/Pulldown value can be overridden in Bitgen. 
#All RSVD_0 pins must be tied to GROUND.
#****** Special VCCO requirements may apply. Please consult the device 
#       family datasheet for specific guideline on VCCO requirements. 
#
#
#